Place,Name,Sex,BirthDate,Age,Equipment,Division,BodyweightKg,WeightClassKg,Bench1Kg,Bench2Kg,Bench3Kg,Bench4Kg,Best3BenchKg,Deadlift1Kg,Deadlift2Kg,Deadlift3Kg,Deadlift4Kg,Best3DeadliftKg,TotalKg,Event
DQ,Mere Joyce,F,1981-09-10,,Raw,F-M1R,80.2,82.5,65,-70,-70,,65,-160,-166,-166,,,,BD
1,Ashlee Dunsmuir,F,1995-01-16,,Raw,F-OR,72.3,75,45,-50,-50,,45,120,125,130,,130,175,BD
1,Angela Perkin,F,1987-02-22,,Raw,F-OR,81.2,82.5,80,87.5,-92.5,,87.5,145,155,-163.5,,155,242.5,BD
2,Camille Perenara,F,1985-01-14,,Raw,F-OR,82.5,82.5,-40,40,-45,,40,120,127.5,-130,,127.5,167.5,BD
1,Lizzie McMullen,F,1998-10-23,,Raw,F-OR,84,90,67.5,72.5,75,,75,120,132.5,140,,140,215,BD
2,Megan Hogg,F,1997-04-19,,Raw,F-OR,86.1,90,40,45,50,,50,-80,80,100,,100,150,BD
1,Sophie Booker,F,1997-04-04,,Raw,F-OR,96.9,100,55,60,-62.5,,60,180,187.5,-194,-194,187.5,247.5,BD
1,Naomi Randall,F,1995-06-21,,Raw,F-OR,106.6,110,80,85,-92.5,,85,150,-160,160,,160,245,BD
1,Courtney Hunter,F,1998-07-15,,Raw,F-OR,135.9,110+,67.5,72.5,77.5,,77.5,-175,180,187.5,,187.5,265,BD
2,Eden Wawatai,F,1990-05-29,,Raw,F-OR,119.8,110+,67.5,75,-80,,75,135,-145,,,135,210,BD
3,Rosie Cameron,F,1996-05-30,,Raw,F-OR,122.6,110+,-60,-60,60,,60,140,-150,-150,,140,200,BD
1,Chloe Jones,F,2008-04-28,,Raw,F-T1R,89.5,90,50,56,-60,-60,56,131,140,-150,150,140,196,BD
1,Marley Martin,F,2006-01-28,,Raw,F-T3R,102.2,110,65,70,75,,75,187.5,-200,200,,200,275,BD
1,Joelene Waugh,F,1982-01-12,,Raw,F-M1R,130.3,110+,92.5,-100,-100,100,92.5,,,,,,92.5,B
1,Lezarne Kani,F,1985-06-12,,Raw,F-OR,92.7,100,,,,,,165,175,-182,,175,175,D
1,Kevin Saunders,M,1976-02-07,,Raw,M-M2R,89,90,130,-135,-135,,130,-265,265,,,265,395,BD
1,Benjamin Creagh,M,1981-02-19,,Raw,M-M1R,123.7,125,212.5,217.5,-222.5,,217.5,310,335.5,,,335.5,553,BD
1,Sam Webster,M,,24,Raw,M-OR,82.1,82.5,110,120,-130,,120,140,160,170,,170,290,BD
2,Jesse Dempster,M,1998-05-30,,Raw,M-OR,81.8,82.5,82.5,90,-100,,90,160,172.5,-180,,172.5,262.5,BD
1,Matt Deaker,M,2000-02-10,,Raw,M-OR,100,100,150,160,-170,,160,240,260,-275,,260,420,BD
2,Finn Tito,M,1998-04-02,,Raw,M-OR,96.2,100,125,135,-147.5,,135,210,225,-230,,225,360,BD
1,Richard De Reeper,M,1998-04-16,,Raw,M-OR,120.8,125,200,212.5,-220,,212.5,320,345,-357.5,,345,557.5,BD
2,Matt Warrenson,M,1998-04-21,,Raw,M-OR,123.2,125,180,-190,-195,,180,-280,285,300,,300,480,BD
3,William McCormick,M,1992-07-30,,Raw,M-OR,124.7,125,150,-160,160,,160,240,255,-265,,255,415,BD
1,Cyril Heywood,M,1990-09-14,,Raw,M-OR,126.8,140,200,210,220,,220,330,360,-380,,360,580,BD
2,Jabian Takanua,M,1991-01-21,,Raw,M-OR,129.1,140,-125,125,-130,,125,260,270,275,,275,400,BD
1,Jay Heywood,M,2011-03-23,,Raw,M-T1R,60,60,-40,40,50,-55,50,115,126,-130,,126,176,BD
1,Izayah Drayton,M,2006-11-20,,Raw,M-T2R,82.5,82.5,125,132.5,-140,,132.5,230,250,-270,,250,382.5,BD
1,Dontae Anderson,M,2006-11-09,,Raw,M-T2R,121.3,125,85,-95,-102.5,,85,-200,200,215,-221,215,300,BD
1,William Corban,M,2005-07-05,,Raw,M-T3R,88.6,90,135,140,145,150,145,220,230,-235,-235,230,375,BD
