Place,Name,BirthDate,BirthYear,Team,BodyweightKg,WeightClassKg,Best3SquatKg,Best3BenchKg,Best3DeadliftKg,TotalKg,Sex,Division,Event,Equipment
1,Laxmi Mani Singh,1997-05-01,,ODI,47,47,105,60,130,295,F,Open,SBD,Raw
2,Rupali Palei,1997-03-15,,ODI,46.8,47,100,55,130,285,F,Open,SBD,Raw
3,Ashi Mol,1997-05-27,,KER,43.9,47,87.5,50,95,232.5,F,Open,SBD,Raw
4,Mini Mathi M,2004-07-25,,PUD,42.75,47,85,42.5,95,222.5,F,Open,SBD,Raw
5,N. Sunita Devi,1980-09-17,,MNP,44,47,50,32.5,90,172.5,F,Open,SBD,Raw
6,Pooja,1999-08-12,,HAR,45.2,47,57.5,32.5,80,170,F,Open,SBD,Raw
7,Anoop Singh #2,1993-05-15,,UP,45,47,50,25,65,140,F,Open,SBD,Raw
1,D. Kusuma,1994-01-03,,AP,52,52,125,80,145,350,F,Open,SBD,Raw
2,Devi Singh,1999-02-08,,ODI,51.5,52,115,72.5,155,342.5,F,Open,SBD,Raw
3,Anupama Swain,1990-11-07,,ODI,52,52,135,65,135,335,F,Open,SBD,Raw
4,Shrvari Inamdar,1983-02-21,,MAH,52,52,100,60,125,285,F,Open,SBD,Raw
5,M. Pragathiswari,2000-10-25,,PUD,51.8,52,90,50,112.5,252.5,F,Open,SBD,Raw
6,Mohini,1987-07-20,,UP,50.3,52,85,60,100,245,F,Open,SBD,Raw
7,Radha Kumari,1986-02-05,,J&k,51.5,52,85,50,107.5,242.5,F,Open,SBD,Raw
8,Anchal Mishra,1995-11-11,,UP,51,52,82.5,47.5,105,235,F,Open,SBD,Raw
9,Sena Gadriya,1993-12-22,,MP,52,52,60,30,90,180,F,Open,SBD,Raw
1,Sandeep Kaur,1991-04-17,,PUN,57,57,125,60,165,350,F,Open,SBD,Raw
2,Rajani Upadhyay,1979-08-11,,RAJ,55.3,57,130,67.5,132.5,330,F,Open,SBD,Raw
3,Sudha Kumari,1979-01-06,,BIH,55.2,57,132.5,77.5,117.5,327.5,F,Open,SBD,Raw
4,Karishma Guram Reddy,1989-01-19,,TEL,56.2,57,110,67.5,145,322.5,F,Open,SBD,Raw
5,Jyothi Lakshmi,1997-02-05,,KER,54.5,57,102.5,52.5,127.5,282.5,F,Open,SBD,Raw
6,Shradha Rathod,1987-11-09,,MAH,56,57,100,55,127.5,282.5,F,Open,SBD,Raw
7,Harsha Yadav,1994-12-20,,MP,56.7,57,87.5,35,100,222.5,F,Open,SBD,Raw
8,Nh Tombie Devi,1984-03-01,,MNP,56.8,57,77.5,40,100,217.5,F,Open,SBD,Raw
9,M. Anupama Devi,1994-05-01,,MNP,55.2,57,57.5,30,80,167.5,F,Open,SBD,Raw
10,Sonika,1994-04-07,,HAR,56.9,57,22.5,25,60,107.5,F,Open,SBD,Raw
11,Anu Bharti,1999-03-04,,DEL,54.5,57,35,20,60,115,F,Open,SBD,Raw
DQ,Bhavana Bisht,1985-03-03,,UP,55.5,57,,,,,F,Open,SBD,Raw
DQ,Mansi Ghosh,1986-07-28,,GUJ,56.1,57,,,,,F,Open,SBD,Raw
DQ,Gurpreet Kaur,1993-10-04,,J&k,55.5,57,,,,,F,Open,SBD,Raw
1,Priyanka Vaishya,1992-09-29,,MP,62.8,63,140,77.5,175,392.5,F,Open,SBD,Raw
2,Vummalla Mallika Yadav,1994-10-14,,TEL,63,63,170,75,140,385,F,Open,SBD,Raw
3,Gauri.A.Shinde,1991-05-07,,MAH,60.5,63,110,55,135,300,F,Open,SBD,Raw
4,Anjali Sharma,1991-05-25,,RAJ,61.7,63,112.5,67.5,120,300,F,Open,SBD,Raw
5,Asma Khan Alvi,1991-07-01,,UP,61.7,63,97.5,67.5,120,285,F,Open,SBD,Raw
6,V. Agilandeswari,1985-05-19,,PUD,60.6,63,95,55,120,270,F,Open,SBD,Raw
7,P. Kumari,1995-06-02,,AP,61.7,63,80,40,110,230,F,Open,SBD,Raw
8,Manu Kushal,1988-01-01,,MP,63,63,85,37.5,102.5,225,F,Open,SBD,Raw
9,Monika Sharma,1986-02-02,,J&k,61.9,63,70,47.5,90,207.5,F,Open,SBD,Raw
10,Ruchi Goyal,1993-10-26,,GUJ,61.7,63,75,30,95,200,F,Open,SBD,Raw
11,M. Ibemcha Devi,1976-01-01,,MNP,62.2,63,57.5,30,70,157.5,F,Open,SBD,Raw
DQ,Neenu Varghese,1995-06-18,,KER,62.9,63,,,,,F,Open,SBD,Raw
DQ,Chandra Badani Mohanta,1993-06-23,,ODI,62.3,63,,,,,F,Open,SBD,Raw
DQ,Manju Rani,1999-12-27,,HAR,62.3,63,,,,,F,Open,SBD,Raw
DQ,Ranjana Chauhan,,,UP,61.4,63,,,,,F,Open,SBD,Raw
1,Bithika Mondal,1992-09-12,,WB,67.1,72,142.5,72.5,150,365,F,Open,SBD,Raw
2,S. Nithya,1989-02-04,,TEL,72,72,125,62.5,147.5,335,F,Open,SBD,Raw
3,Dilna M.M,1988-05-15,,KER,68.1,72,122.5,62.5,135,320,F,Open,SBD,Raw
4,Mattukoyya Salomee,1997-06-08,,AP,71.4,72,125,50,135,310,F,Open,SBD,Raw
5,Boishali Boruah,1993-06-16,,ASM,70.3,72,125,60,117.5,302.5,F,Open,SBD,Raw
6,Sk. Nageena,1997-03-24,,AP,65.3,72,120,42.5,130,292.5,F,Open,SBD,Raw
7,Sonia Sharma,1985-02-26,,HAR,66.9,72,97.5,57.5,115,270,F,Open,SBD,Raw
8,Malvi Gupta,1990-02-28,,J&k,65.5,72,75,52.5,105,232.5,F,Open,SBD,Raw
9,Sheetal.J.Flora,1991-05-24,,GUJ,71.1,72,75,35,100,210,F,Open,SBD,Raw
DQ,Juhi Gupta,1993-10-05,,J&k,70.1,72,,,,,F,Open,SBD,Raw
DQ,Isha Singh,1993-12-13,,MP,70.4,72,,,,,F,Open,SBD,Raw
1,Sangeeta Singh,1988-06-16,,ODI,73,84,160,85,157.5,402.5,F,Open,SBD,Raw
2,Kiran,1992-06-15,,UP,74.5,84,130,80,147.5,357.5,F,Open,SBD,Raw
3,Ritu,2000-02-05,,RAJ,72.1,84,135,60,160,355,F,Open,SBD,Raw
4,Sanjuka Sahu,1991-05-03,,ODI,83.4,84,130,65,145,340,F,Open,SBD,Raw
5,B. Chandrika,1993-02-21,,AP,84,84,125,60,152.5,337.5,F,Open,SBD,Raw
6,Libas P. Bava,1984-02-27,,KER,78.5,84,137.5,55,132.5,325,F,Open,SBD,Raw
7,Sajida Nafees,1979-07-11,,DEL,83,84,120,65,130,315,F,Open,SBD,Raw
8,Ruby,1998-06-03,,PUN,72.1,84,120,57.5,130,307.5,F,Open,SBD,Raw
9,Supritha,1991-05-28,,KAR,72.1,84,110,50,132.5,292.5,F,Open,SBD,Raw
10,K. Naga Sireesha,1986-07-08,,AP,83,84,100,60,125,285,F,Open,SBD,Raw
11,Shikha Chiraniya,1981-06-25,,GUJ,78.3,84,110,35,135,280,F,Open,SBD,Raw
12,Gargi Singh,1990-05-18,,RAJ,82.1,84,95,45,125,265,F,Open,SBD,Raw
13,Sabnam,1995-08-10,,HAR,80.2,84,90,45,95,230,F,Open,SBD,Raw
14,Manisha Grover,1984-08-04,,DEL,73,84,77.5,45,105,227.5,F,Open,SBD,Raw
1,K. Tulasi,1986-07-16,,AP,95.4,84+,137.5,82.5,147.5,367.5,F,Open,SBD,Raw
2,Parvinder Kaur,1980-02-24,,PUN,106.2,84+,132.5,65,157.5,355,F,Open,SBD,Raw
3,Neetu Kharra,1995-10-30,,RAJ,84.2,84+,132.5,67.5,147.5,347.5,F,Open,SBD,Raw
4,Pratiksha Salvi,1997-07-11,,MAH,84.9,84+,132.5,67.5,137.5,337.5,F,Open,SBD,Raw
5,Jayita Mazumder,1991-09-15,,WB,100.5,84+,120,80,135,335,F,Open,SBD,Raw
6,Samika Rasania,1992-10-07,,GUJ,114,84+,115,55,120,290,F,Open,SBD,Raw
7,Archana Surendran,2001-08-29,,KER,85.5,84+,110,45,120,275,F,Open,SBD,Raw
8,Upasana Mahajan,1989-08-15,,J&k,120,84+,77.5,55,105,237.5,F,Open,SBD,Raw
9,Bhuvaneswari.G,1999-01-09,,PUD,85.5,84+,70,40,90,200,F,Open,SBD,Raw
10,Purvi Sharma,2002-08-24,,MP,96.5,84+,67.5,30,70,167.5,F,Open,SBD,Raw
NS,Pranjal Solanki,2001-03-12,,MP,,84+,,,,,F,Open,SBD,Raw
1,Mini Mathi M,2004-07-25,,PUD,42,43,85,42.5,95,222.5,F,Sub-Juniors,SBD,Raw
2,Humanshi Gurjar,2003-09-26,,RAJ,43,43,70,47.5,95,212.5,F,Sub-Juniors,SBD,Raw
3,Seethal N. K,2001-02-22,,KER,41,43,70,32.5,100,202.5,F,Sub-Juniors,SBD,Raw
4,V. Bhagya Laxmi,2000-04-23,,TEL,40.5,43,55,32.5,85,172.5,F,Sub-Juniors,SBD,Raw
5,Deepshika,2001-03-06,,DEL,39.5,43,27.5,20,50,97.5,F,Sub-Juniors,SBD,Raw
6,Elangbam Thoithoibi Chanu,2001-01-08,,MNP,41.5,43,30,20,45,95,F,Sub-Juniors,SBD,Raw
DQ,Nishakumari,2002-01-04,,DEL,43,43,,,,,F,Sub-Juniors,SBD,Raw
1,Mahi Chouhan,,,RAJ,47,47,75,40,105,220,F,Sub-Juniors,SBD,Raw
2,Ashmeet Kaur,2004-01-26,,DEL,46.5,47,75,42.5,97.5,215,F,Sub-Juniors,SBD,Raw
3,Arti,2004-01-11,,HARY,46.5,47,75,40,100,215,F,Sub-Juniors,SBD,Raw
4,Sk. Karishma,2004-04-18,,AP,47,47,70,30,105,205,F,Sub-Juniors,SBD,Raw
5,N. Maniquam Shetty,2002-04-02,,KER,46.5,47,75,27.5,95,197.5,F,Sub-Juniors,SBD,Raw
6,Shalini,2000-01-20,,DEL,47,47,67.5,27.5,95,190,F,Sub-Juniors,SBD,Raw
7,Monica V,2002-07-22,,PUD,44.5,47,65,35,90,190,F,Sub-Juniors,SBD,Raw
8,Elangbam Lenthoinganabi,2002-02-05,,MNP,46,47,30,20,70,120,F,Sub-Juniors,SBD,Raw
DQ,Priyadarsini Sansa.M,2001-05-05,,MNP,44.5,47,,,,,F,Sub-Juniors,SBD,Raw
1,Pragathiswari,2000-10-25,,PUD,51.5,52,85,50,112.5,247.5,F,Sub-Juniors,SBD,Raw
2,Ankita Machwe,2002-01-09,,MP,51.5,52,80,40,122.5,242.5,F,Sub-Juniors,SBD,Raw
3,Mamta Choudhary,2002-10-06,,RAJ,51.5,52,80,50,107.5,237.5,F,Sub-Juniors,SBD,Raw
4,Prachi Soni,2001-12-08,,RAJ,51,52,70,30,102.5,202.5,F,Sub-Juniors,SBD,Raw
5,Meenu,2003-08-26,,HARY,52,52,62.5,37.5,100,200,F,Sub-Juniors,SBD,Raw
6,Shalu Prajapathi,2001-01-07,,MAH,49,52,60,27.5,97.5,185,F,Sub-Juniors,SBD,Raw
7,Deepika Kasana,2000-11-07,,DEL,51.9,52,47.5,30,70,147.5,F,Sub-Juniors,SBD,Raw
8,Priya Mehra,2000-12-31,,DEL,48,52,32.5,22.5,60,115,F,Sub-Juniors,SBD,Raw
1,Jwala Jose L,2000-01-17,,KER,54.5,57,97.5,40,120,257.5,F,Sub-Juniors,SBD,Raw
2,Neethu Shree Das,2001-11-19,,TEL,55,57,82.5,32.5,115,230,F,Sub-Juniors,SBD,Raw
3,Dhanashri Manadik,2003-05-27,,MAH,55.5,57,85,40,100,225,F,Sub-Juniors,SBD,Raw
4,Sanasam Chaoba Devi,2004-10-20,,MNP,53.7,57,90,40,82.5,212.5,F,Sub-Juniors,SBD,Raw
5,Geeta,2001-04-02,,HAR,53.2,57,65,35,87.5,187.5,F,Sub-Juniors,SBD,Raw
6,Ajanu,2000-12-20,,RAJ,53.2,57,60,37.5,90,187.5,F,Sub-Juniors,SBD,Raw
7,Priya Kuntal,2000-09-11,,UP,55.5,57,55,32.5,100,187.5,F,Sub-Juniors,SBD,Raw
8,Saumya Chauhan,2002-02-23,,UP,54.5,57,55,27.5,70,152.5,F,Sub-Juniors,SBD,Raw
1,Celestina Antoniette Rebello,2000-06-23,,KER,62.2,63,102.5,42.5,105,250,F,Sub-Juniors,SBD,Raw
2,T. Samyuktha,2000-06-02,,AP,63,63,90,40,110,240,F,Sub-Juniors,SBD,Raw
3,Priyanka Prashanti,2000-09-01,,UP,60.5,63,75,30,107.5,212.5,F,Sub-Juniors,SBD,Raw
4,Moodamansu,2000-03-30,,MAH,63,63,75,32.5,95,202.5,F,Sub-Juniors,SBD,Raw
5,Ch. Jahnasri,2000-06-05,,AP,,63,50,30,90,170,F,Sub-Juniors,SBD,Raw
1,Nandana R,2001-11-07,,KER,71,72,140,62.5,135,337.5,F,Sub-Juniors,SBD,Raw
2,Caroline Rebello,2000-06-23,,MAH,68.3,72,107.5,52.5,137.5,297.5,F,Sub-Juniors,SBD,Raw
3,R. Pranitha,2000-01-19,,TEL,70.5,72,100,45,127.5,272.5,F,Sub-Juniors,SBD,Raw
4,Komala E,2003-06-03,,PUD,68.5,72,95,35,122.5,252.5,F,Sub-Juniors,SBD,Raw
5,Sheetal,2004-12-17,,HAR,72,72,92.5,47.5,102.5,242.5,F,Sub-Juniors,SBD,Raw
6,K. Gayatri,2000-06-28,,AP,68,72,60,40,120,220,F,Sub-Juniors,SBD,Raw
7,B. Sai Sumitra Devi,2001-05-10,,AP,72,72,65,30,90,185,F,Sub-Juniors,SBD,Raw
8,Nikita Rajput,2001-08-15,,MP,69.5,72,62.5,35,80,177.5,F,Sub-Juniors,SBD,Raw
9,Trishya Damle,2000-06-16,,CHT,72,72,45,30,90,165,F,Sub-Juniors,SBD,Raw
DQ,Priyanshi Sharma,2000-08-05,,DEL,70,72,60,,,,F,Sub-Juniors,SBD,Raw
1,Ritu. R,2000-02-05,,RAJ,74,84,140,55,165,360,F,Sub-Juniors,SBD,Raw
2,Navya Prasad,2001-11-14,,KER,75.5,84,135,62.5,137.5,335,F,Sub-Juniors,SBD,Raw
3,Prerna Salvi,2003-03-31,,MAH,75,84,110,55,95,260,F,Sub-Juniors,SBD,Raw
4,P. Revathi,2001-10-13,,TEL,84,84,95,47.5,115,257.5,F,Sub-Juniors,SBD,Raw
5,Pavithra V,2001-12-31,,PUD,83.5,84,75,35,105,215,F,Sub-Juniors,SBD,Raw
6,Ritika Tundule,2001-08-31,,MP,82,84,62.5,32.5,90,185,F,Sub-Juniors,SBD,Raw
7,Muskan Borasi,2001-01-28,,MP,79,84,60,32.5,87.5,180,F,Sub-Juniors,SBD,Raw
8,Chehak Bansal,2001-01-31,,DEL,74,84,50,27.5,70,147.5,F,Sub-Juniors,SBD,Raw
1,Pranjal Solanki,2001-03-12,,MP,103,84+,130,57.5,135,322.5,F,Sub-Juniors,SBD,Raw
2,Archana Surendran,2001-08-29,,KER,88,84+,112.5,47.5,120,280,F,Sub-Juniors,SBD,Raw
3,Narmadha I,2001-01-19,,PUD,102,84+,90,47.5,110,247.5,F,Sub-Juniors,SBD,Raw
4,Tamanna Singh,2003-04-06,,MP,91,84+,70,35,115,220,F,Sub-Juniors,SBD,Raw
5,Reshma.G.R,2001-08-22,,KER,95,84+,80,32.5,100,212.5,F,Sub-Juniors,SBD,Raw
6,Reshmita Yasmin,2000-11-27,,WB,89,84+,40,30,102.5,172.5,F,Sub-Juniors,SBD,Raw
1,Seema Rani Singh,1996-06-07,,ODI,40.5,43,80,50,112.5,242.5,F,Juniors,SBD,Raw
2,Bharati Patra,1998-04-02,,ODI,43,43,75,45,107.5,227.5,F,Juniors,SBD,Raw
3,Sehej Maini,1997-04-25,,MAH,42.9,43,70,42.5,75,187.5,F,Juniors,SBD,Raw
4,Sushmitha G,1999-08-28,,KAR,43,43,55,30,77.5,162.5,F,Juniors,SBD,Raw
5,Mamta,1999-08-14,,UP,40.5,43,50,27.5,75,152.5,F,Juniors,SBD,Raw
DQ,Sampa Sarkar,1999-05-02,,WB,40,43,,,,,F,Juniors,SBD,Raw
DQ,Sushmitha D,1997-11-09,,KAR,43,43,,,,,F,Juniors,SBD,Raw
1,Laxmi Mani Singh,1997-05-01,,ODI,47,47,105,65,137.5,307.5,F,Juniors,SBD,Raw
2,Rupali Palei,1997-03-15,,ODI,46,47,102.5,55,130,287.5,F,Juniors,SBD,Raw
3,Ashi Mol,1997-05-27,,KER,44.3,47,92.5,47.5,90,230,F,Juniors,SBD,Raw
4,Pooja,1999-08-12,,HAR,45,47,55,30,80,165,F,Juniors,SBD,Raw
5,Pratibha Dhameriya,1999-11-03,,MP,46.7,47,50,35,80,165,F,Juniors,SBD,Raw
DQ,Sanasam Sonia Devi,1998-12-25,,MNP,44.5,47,,,,,F,Juniors,SBD,Raw
1,Syeda Samina Razin,1996-01-02,,ASM,51.9,52,77.5,45,125,247.5,F,Juniors,SBD,Raw
2,S. K. Nazma,1998-04-24,,AP,50.5,52,85,40,110,235,F,Juniors,SBD,Raw
3,Raja Bharosa Ved,1996-08-20,,RAJ,52,52,70,52.5,97.5,220,F,Juniors,SBD,Raw
4,Shaini Saha,1998-10-06,,WB,52,52,70,40,100,210,F,Juniors,SBD,Raw
5,Divya Prajapat,1998-01-05,,MP,51.5,52,65,32.5,95,192.5,F,Juniors,SBD,Raw
6,Santosh,1997-01-02,,HAR,50.5,52,55,35,95,185,F,Juniors,SBD,Raw
7,Muskan Kushwana,1998-08-29,,MP,52,52,57.5,27.5,97.5,182.5,F,Juniors,SBD,Raw
DQ,Devi Singh,1999-02-08,,ODI,51.9,52,,,,,F,Juniors,SBD,Raw
1,Dhanamani Tudu,1998-05-04,,ODI,55,57,97.5,52.5,137.5,287.5,F,Juniors,SBD,Raw
2,Jyothi Lakshmi,1997-02-05,,KER,53.8,57,90,52.5,130,272.5,F,Juniors,SBD,Raw
3,Sargam Chouhan,1997-06-15,,MP,55.8,57,87.5,65,120,272.5,F,Juniors,SBD,Raw
4,Surabhi Bali,1997-11-19,,J&K,52.5,57,90,50,115,255,F,Juniors,SBD,Raw
5,Sunita Devi,1999-12-11,,HAR,54.5,57,75,40,100,215,F,Juniors,SBD,Raw
6,Aparna Rajput,1998-10-08,,UP,56,57,70,35,100,205,F,Juniors,SBD,Raw
7,Nisha Yadav,1997-06-16,,DEL,55.5,57,82.5,30,85,197.5,F,Juniors,SBD,Raw
8,Saveri,1999-03-15,,DEL,52.5,57,50,30,67.5,147.5,F,Juniors,SBD,Raw
1,Neenu Varghese,1995-06-18,,KER,62.8,63,130,62.5,167.5,360,F,Juniors,SBD,Raw
2,Manju Rani,1999-12-27,,HAR,62.8,63,130,77.5,150,357.5,F,Juniors,SBD,Raw
3,Anjali Sharma,1999-05-25,,RAJ,62.8,63,117.5,62.5,115,295,F,Juniors,SBD,Raw
4,Sumpi Bora,1996-09-27,,ASM,63,63,90,45,125,260,F,Juniors,SBD,Raw
5,Pooja.D,1995-10-30,,KTK,63,63,102.5,50,107.5,260,F,Juniors,SBD,Raw
6,Shama Parveen,1997-05-10,,DEL,59.5,63,85,47.5,120,252.5,F,Juniors,SBD,Raw
7,Aditi Parshetty,1997-08-20,,MAH,60.5,63,85,50,115,250,F,Juniors,SBD,Raw
8,Babitha. M. Babu,1998-02-05,,KER,62,63,92.5,35,122.5,250,F,Juniors,SBD,Raw
9,Bandita Tung,1998-04-09,,ODI,59,63,80,35,95,210,F,Juniors,SBD,Raw
10,Madhu Rani,1997-09-09,,HAR,63,63,70,35,95,200,F,Juniors,SBD,Raw
11,Tanishka,1997-08-06,,DEL,62.7,63,35,25,75,135,F,Juniors,SBD,Raw
DQ,Harshita Kapatkar,1999-04-23,,CHT,59.5,63,,,,,F,Juniors,SBD,Raw
DQ,Archana,1999-08-24,,RAJ,63,63,,,,,F,Juniors,SBD,Raw
DQ,Mamta Salvi,1997-12-19,,MAH,62.5,63,,,,,F,Juniors,SBD,Raw
DQ,Lucky Ahmed,1996-11-07,,ASM,63,63,,,,,F,Juniors,SBD,Raw
1,Akshaya Shedge Vishnupriya,1995-05-13,,MAH,65.3,72,122.5,57.5,160,340,F,Juniors,SBD,Raw
2,Murukesan,1996-09-15,,KER,68,72,120,65,140,325,F,Juniors,SBD,Raw
3,Padmabati Singh,1999-07-07,,ODI,69,72,110,60,130,300,F,Juniors,SBD,Raw
4,Aparna Chauhan,1999-02-03,,HAR,68,72,100,50,120,270,F,Juniors,SBD,Raw
5,Divya Gujrar,1997-08-09,,MP,69.5,72,90,37.5,120,247.5,F,Juniors,SBD,Raw
6,Preeti,1995-11-17,,DEL,67,72,95,40,107.5,242.5,F,Juniors,SBD,Raw
7,Nisha,1999-12-15,,HAR,64,72,65,40,110,215,F,Juniors,SBD,Raw
8,Chanda Barman,1996-11-18,,WB,69.8,72,82.5,32.5,95,210,F,Juniors,SBD,Raw
9,Simran Burman,1998-12-04,,J&K,70,72,60,37.5,65,162.5,F,Juniors,SBD,Raw
1,Murchana Saharia H,1997-01-07,,ASM,84,84,125,60,142.5,327.5,F,Juniors,SBD,Raw
2,Vandhana Shaji,1997-05-30,,KER,79,84,132.5,47.5,130,310,F,Juniors,SBD,Raw
3,Suheta Pegu,1996-01-28,,ASM,82.5,84,117.5,45,122.5,285,F,Juniors,SBD,Raw
4,Rajni,1996-10-12,,DEL,78.5,84,120,50,112.5,282.5,F,Juniors,SBD,Raw
5,Yogita Gupta,1996-11-03,,UP,76,84,80,40,105,225,F,Juniors,SBD,Raw
6,Priya Shrivastav,1995-08-20,,MP,78,84,80,42.5,102.5,225,F,Juniors,SBD,Raw
7,Sabnam,1995-08-10,,HAR,82.5,84,90,45,90,225,F,Juniors,SBD,Raw
8,Smriti Kashyap,1999-03-15,,UP,76,84,77.5,42.5,100,220,F,Juniors,SBD,Raw
1,Pratiksha Salvi,1997-07-11,,MAH,85,84+,145,65,137.5,347.5,F,Juniors,SBD,Raw
2,Neetu Kharra,1995-10-30,,RAJ,85.3,84+,135,70,140,345,F,Juniors,SBD,Raw
3,Jagrati Junaniya,1998-08-06,,MP,89,84+,130,57.5,140,327.5,F,Juniors,SBD,Raw
DQ,Susmita Das,1997-08-21,,WB,103,84+,,,,,F,Juniors,SBD,Raw
1,Reshma Shaha,1970-06-10,,MAH,52,52,60,30,75,165,F,Masters 1,SBD,Raw
1,Ekta Vishnoi,1974-06-03,,MAH,54.5,57,95,50,110,255,F,Masters 1,SBD,Raw
2,Deepa Lunkad,1975-04-02,,MAH,55.5,57,75,37.5,100,212.5,F,Masters 1,SBD,Raw
1,Vimla Saldanha,1969-12-02,,MAH,61.2,63,82.5,40,117.5,240,F,Masters 1,SBD,Raw
2,Faye Cummings,1972-03-25,,MAH,62,63,77.5,45,102.5,225,F,Masters 1,SBD,Raw
3,Manisha Shukla,1978-11-29,,UP,63,63,65,32.5,82.5,180,F,Masters 1,SBD,Raw
1,Rohini Bansal,1976-07-05,,MAH,69.5,72,140,62.5,147.5,350,F,Masters 1,SBD,Raw
2,Ranjitha Mishra,1972-03-27,,MAH,69.5,72,112.5,60,125,297.5,F,Masters 1,SBD,Raw
3,Anju Singh,1977-06-15,,CHT,70.3,72,80,40,115,235,F,Masters 1,SBD,Raw
4,Sujatha.V,1978-11-03,,PUD,67,72,80,35,90,205,F,Masters 1,SBD,Raw
1,Charusita Tiwari,1978-06-28,,MP,79,84,60,42.5,100,202.5,F,Masters 1,SBD,Raw
2,Namrata Gautam,,,UP,84,84,70,40,85,195,F,Masters 1,SBD,Raw
1,Santwana Sharma,1973-04-28,,MP,89.5,84+,85,42.5,95,222.5,F,Masters 1,SBD,Raw
1,Vinutha Raghunath,1968-04-22,,MAH,54,57,112.5,47.5,117.5,277.5,F,Masters 2,SBD,Raw
2,Seema Verma,1966-06-01,,MP,55.8,57,82.5,57.5,100,240,F,Masters 2,SBD,Raw
1,N.K.Eswari,,,KER,64.5,72,65,30,85,180,F,Masters 2,SBD,Raw
2,Th. Ibeyaima Devi,1962-02-01,,MNP,66.2,72,72.5,25,80,177.5,F,Masters 2,SBD,Raw
1,Gayatri Tomar,1966-11-04,,MP,82.5,84,90,55,120,265,F,Masters 2,SBD,Raw
1,Mary Beena,1965-05-31,,KER,91,84+,115,55,130,300,F,Masters 2,SBD,Raw
2,Madhavi Nandwani,1968-12-17,,DEL,88.7,84+,65,42.5,105,212.5,F,Masters 2,SBD,Raw
3,H. Ibempishak Devi,1965-03-01,,MNP,84.5,84+,35,25,70,130,F,Masters 2,SBD,Raw
1,Anuja Tendolkar,1958-01-10,,MAH,104,84+,92.5,60,112.5,265,F,Masters 3,SBD,Raw
1,S. Panneerselvam,1991-09-13,,PUD,58.1,59,185,115,230,530,M,Open,SBD,Raw
2,Manish Kumar Gupta,1990-05-11,,UP,58,59,185,128,185,497.5,M,Open,SBD,Raw
3,Manmohan Rana,1998-09-12,,DEL,58.8,59,160,90,200,450,M,Open,SBD,Raw
4,Sonu Sahoo,1992-04-20,,ODI,59,59,152.5,95,195,442.5,M,Open,SBD,Raw
5,Bodh Raj,1984-02-22,,J & k,58.6,59,137.5,113,165,415,M,Open,SBD,Raw
6,Prashant Padavi,1992-04-18,,MAH,56.4,59,117.5,65,160,342.5,M,Open,SBD,Raw
7,Lucky,1998-03-05,,HP,55.8,59,110,55,135,300,M,Open,SBD,Raw
8,Deepak,2000-09-13,,HAR,57.6,59,95,65,140,300,M,Open,SBD,Raw
9,Deepak Kumar,1999-02-19,,HP,55.7,59,60,35,90,185,M,Open,SBD,Raw
DQ,Deepesh Tiwari,1992-06-27,,MP,59,59,,,,,M,Open,SBD,Raw
DQ,Basanta Maleka,1995-07-01,,ODI,57.2,59,,,,,M,Open,SBD,Raw
DQ,S. V. Shaji,,1974,OFB,59,59,,,,,M,Open,SBD,Raw
1,P. Manjappa,1988-02-03,,KTK,65.8,66,210,123,250,582.5,M,Open,SBD,Raw
2,Bichitra Nayak,1993-07-07,,ODI,65.2,66,190,143,230,562.5,M,Open,SBD,Raw
3,Vijay Kumar,1982-12-10,,DEL,65.4,66,190,100,230,520,M,Open,SBD,Raw
4,S. Kamalapriyan,1995-06-27,,PUD,66,66,190,105,212.5,507.5,M,Open,SBD,Raw
5,Ashish Dey,1996-01-01,,JHAR,63.3,66,190,100,212.5,502.5,M,Open,SBD,Raw
6,P. Sravan Kumar,1996-09-03,,TEL,66,66,160,118,195,472.5,M,Open,SBD,Raw
7,Lovinder Singh,1995-11-22,,PUN,64.2,66,160,113,190,462.5,M,Open,SBD,Raw
8,Anil Kumar Gautam,1987-04-24,,UP,63.7,66,140,80,165,385,M,Open,SBD,Raw
9,Somani Mandar Jayeshbhai,1994-11-26,,GUJ,65.4,66,100,90,160,350,M,Open,SBD,Raw
10,Uma Maheshwara Rao,1979-03-04,,OFB,66,66,120,90,135,345,M,Open,SBD,Raw
11,Svk Chaitanya,1997-04-12,,AP,64.3,66,107.5,65,160,332.5,M,Open,SBD,Raw
12,Ravi Raikopand,1998-07-21,,CHT,61.3,66,110,70,150,330,M,Open,SBD,Raw
13,Deep Jyoti Kachhap,1991-10-26,,CHT,65.5,66,100,60,140,300,M,Open,SBD,Raw
DQ,Virender Singh,1997-03-14,,HP,59.2,66,,,,,M,Open,SBD,Raw
DQ,Hiteshwar Singh,1993-04-06,,HP,62.7,66,,,,,M,Open,SBD,Raw
DQ,Manoj Mhalaskar,1994-01-20,,MAH,66,66,,,,,M,Open,SBD,Raw
1,Pradeep Kumar,1988-05-04,,KTK,74,74,200,145,230,575,M,Open,SBD,Raw
2,Vikas Damare,1991-07-26,,MAH,73.4,74,190,135,230,555,M,Open,SBD,Raw
3,Kiran B. Thundil,1994-02-18,,KER,72,74,212.5,108,220,540,M,Open,SBD,Raw
4,Davinder Singh,1990-01-30,,PUN,72.2,74,182.5,123,205,510,M,Open,SBD,Raw
5,Samarjeet,1990-10-14,,J & k,74,74,177.5,113,215,505,M,Open,SBD,Raw
6,Manoj Kumar Sahoo,1991-07-01,,ODI,72.6,74,160,120,215,495,M,Open,SBD,Raw
7,P. Sai Ram,1993-05-09,,TEL,71.7,74,160,95,210,465,M,Open,SBD,Raw
8,Abhishekh Gupta,1993-07-19,,WB,72,74,145,110,210,465,M,Open,SBD,Raw
9,Deepak Kumar,,,UP,71.9,74,160,97.5,195,452.5,M,Open,SBD,Raw
10,Chetan Sharma,1992-06-25,,CHD,69.2,74,130,100,170,400,M,Open,SBD,Raw
11,Tourangham Satish Meetei,,,MNP,69.5,74,120,100,150,370,M,Open,SBD,Raw
12,K. Krishnamurthy,1979-01-21,,PUD,72.3,74,130,85,150,365,M,Open,SBD,Raw
13,Ghanshyam Singh,1988-05-13,,UTK,72.9,74,90,65,150,305,M,Open,SBD,Raw
14,Ghanshyam,1995-09-20,,HP,66.8,74,95,65,140,300,M,Open,SBD,Raw
15,Virendra Singh Gurjar,1988-09-25,,RAJ,69.8,74,90,40,80,210,M,Open,SBD,Raw
DQ,Gaurav Kumar,1998-11-09,,CHT,68.7,74,112.5,,,,M,Open,SBD,Raw
DQ,Ishwar Singh,2000-05-20,,HP,73.3,74,90,,,,M,Open,SBD,Raw
1,Vishwanatha B,1991-01-09,,KTK,82,83,225,130,290,645,M,Open,SBD,Raw
2,D. Laxmi Narayana,1976-09-12,,AP,82.4,83,245,125,255,625,M,Open,SBD,Raw
3,Mahendar Kumar Singh,1989-11-23,,JHAR,82.3,83,235,148,235,617.5,M,Open,SBD,Raw
4,Prakash Sahu,1995-05-27,,MAH,81.5,83,205,138,265,607.5,M,Open,SBD,Raw
5,Ashraf,1978-11-04,,J & k,81.9,83,220,105,275,600,M,Open,SBD,Raw
6,Sunil,1987-06-16,,DEL,80.5,83,200,140,252.5,592.5,M,Open,SBD,Raw
7,G. Ramesh,1993-12-19,,TEL,78.6,83,200,115,240,555,M,Open,SBD,Raw
8,Ranjeet Singh,1988-06-10,,PUN,79,83,190,135,230,555,M,Open,SBD,Raw
9,Ansu Singh,1992-07-05,,WB,80.3,83,207.5,113,232.5,552.5,M,Open,SBD,Raw
10,Salman Khan #2,1990-06-06,,MP,81.9,83,180,130,225,535,M,Open,SBD,Raw
11,V. Prabhakaran,1987-11-01,,TN,80.9,83,200,118,215,532.5,M,Open,SBD,Raw
12,Sunny.S.Bavcha,1988-07-10,,GUJ,78.7,83,180,110,210,500,M,Open,SBD,Raw
13,Satwinder Pal Singh,1986-10-17,,PUN,81.9,83,147.5,95,150,392.5,M,Open,SBD,Raw
14,Suresh,1998-07-12,,HAR,78.1,83,100,100,160,360,M,Open,SBD,Raw
15,P. Irissappan,1980-08-17,,PUD,82.8,83,120,75,150,345,M,Open,SBD,Raw
16,Rohit Kumar,1997-08-10,,HP,75,83,95,50,130,275,M,Open,SBD,Raw
DQ,Manoj Kumar Rathore,,,UP,81,83,175,143,,,M,Open,SBD,Raw
DQ,Rajkumar Rojer Singh,1983-03-01,,MNP,82,83,,,,,M,Open,SBD,Raw
DQ,Harvinder Singh,1994-01-22,,HAR,79.7,83,,,,,M,Open,SBD,Raw
DQ,Mahesh.M.Chile,,1986,OFB,81.6,83,,,,,M,Open,SBD,Raw
DQ,Asfakol Hak,1995-05-15,,MP,81.2,83,,,,,M,Open,SBD,Raw
DQ,Rakesh Kumar Satapathy,1987-07-04,,ODI,80.9,83,240,168,,,M,Open,SBD,Raw
DQ,Yaswant Singh,1986-02-12,,JHAR,82.2,83,220,140,,,M,Open,SBD,Raw
1,Gaurav Ganesh Ghule,1994-11-20,,MAH,91.2,93,230,168,275,672.5,M,Open,SBD,Raw
2,Alok Raj,1989-01-16,,BIH,92.8,93,240,170,240,650,M,Open,SBD,Raw
3,Vikas Sangelia,1993-09-14,,DEL,89.9,93,207.5,137.5,287.5,632.5,M,Open,SBD,Raw
4,Deepak Kumar Nayak,1996-06-09,,ODI,90.3,93,242.5,125,255,622.5,M,Open,SBD,Raw
5,Meet Chaturvedi,1995-02-28,,UP,90.3,93,210,140,270,620,M,Open,SBD,Raw
6,Amandeep Bassan,1996-09-23,,J & k,90.7,93,220,158,215,592.5,M,Open,SBD,Raw
7,Davinder Singh,1992-05-14,,PUN,91.3,93,225,140,220,585,M,Open,SBD,Raw
8,Nitish Kumar,1993-02-10,,BIH,92.2,93,222.5,128,225,575,M,Open,SBD,Raw
9,Vaibhav Naik,1994-09-30,,MP,89.9,93,210,130,215,555,M,Open,SBD,Raw
10,Praveen Kumar Yadav,1990-07-27,,RAJ,91.1,93,170,135,240,545,M,Open,SBD,Raw
11,Himanshu Singh,1996-07-24,,UP,90.6,93,167.5,138,220,525,M,Open,SBD,Raw
12,Baldev Singh,1989-08-11,,UTK,89.5,93,180,115,210,505,M,Open,SBD,Raw
13,Kamal Singh,1989-11-01,,MP,85.4,93,175,130,180,485,M,Open,SBD,Raw
14,Sushant Kumar,1986-03-17,,GUJ,88.2,93,155,100,177.5,432.5,M,Open,SBD,Raw
15,Thounaojam Roshan Singh,1991-03-09,,MNP,91.5,93,110,70,130,310,M,Open,SBD,Raw
16,Sandeep Kumar,1986-06-19,,HAR,84.2,93,80,85,130,295,M,Open,SBD,Raw
DQ,S. K. Mishra,1977-11-12,,OFB,91.1,93,,,,,M,Open,SBD,Raw
1,Y. Raghavendra Goud,1992-05-17,,TEL,103.7,105,290,180,270,740,M,Open,SBD,Raw
2,Suraj Kumar Singh,1993-06-15,,KTK,100,105,255,140,280,675,M,Open,SBD,Raw
3,P. Mayakrishnan,1979-10-19,,TN,102.9,105,270,155,245,670,M,Open,SBD,Raw
4,Soumya Ranjan Sahoo,,,ODI,96.8,105,255,168,245,667.5,M,Open,SBD,Raw
5,Manoj Kumar,1991-04-10,,RAJ,104,105,210,163,290,662.5,M,Open,SBD,Raw
6,Ankit Chouhan,1992-11-19,,MP,104.5,105,267.5,155,230,652.5,M,Open,SBD,Raw
7,Roshan Lal Sharma,1987-04-06,,J & k,102.9,105,245,150,255,650,M,Open,SBD,Raw
8,Amandeep Arora,1989-09-09,,UTK,103.2,105,210,150,240,600,M,Open,SBD,Raw
9,A. Srinivas Rao,1985-06-08,,TEL,93.2,105,215,130,250,595,M,Open,SBD,Raw
10,Vijay Singh,1984-08-07,,RAJ,95.7,105,200,138,240,577.5,M,Open,SBD,Raw
11,Shiva Rana,1992-02-12,,CHD,102.7,105,190,140,230,560,M,Open,SBD,Raw
12,Ajinkya Padavankar,1987-11-06,,MAH,96.9,105,167.5,130,235,532.5,M,Open,SBD,Raw
13,Ashu Kumar Sharma,1987-07-15,,UP,99.5,105,170,140,220,530,M,Open,SBD,Raw
14,Sachin,1990-07-15,,UTK,105,105,125,70,130,325,M,Open,SBD,Raw
15,R. Vasanth,1994-05-03,,PUD,103.3,105,100,70,120,290,M,Open,SBD,Raw
DQ,Avishek Indora,1994-11-18,,PUN,103.6,105,,,,,M,Open,SBD,Raw
DQ,M.Ajay Kumar,1998-05-06,,AP,102.2,105,,,,,M,Open,SBD,Raw
DQ,A.Surjit Singh,1988-03-18,,MNP,101.4,105,,,,,M,Open,SBD,Raw
DQ,Abhishek Kumar,1997-09-14,,DEL,97.5,105,,,,,M,Open,SBD,Raw
1,Jabir Singh Bhav,1992-02-14,,J & k,116.5,120,220,190,260,670,M,Open,SBD,Raw
2,Ranjith,1987-10-27,,KER,119.2,120,280,115,250,645,M,Open,SBD,Raw
3,Babuji R. K,1992-09-07,,KER,118,120,235,155,237.5,627.5,M,Open,SBD,Raw
4,Amol Bhagwan Kadaskar,1985-07-01,,MAH,114.2,120,242.5,160,220,622.5,M,Open,SBD,Raw
5,Gopi,1985-03-13,,PUN,117.5,120,205,170,240,615,M,Open,SBD,Raw
6,T. Laxminarayan,1989-11-10,,KTK,112.7,120,225,158,230,612.5,M,Open,SBD,Raw
7,Yogesh Kumar,1989-07-05,,MP,105.2,120,210,148,232.5,590,M,Open,SBD,Raw
8,Amit Kishan,1994-02-14,,BIH,107.8,120,207.5,125,230,562.5,M,Open,SBD,Raw
9,Shine Abraham,1987-11-28,,RAJ,105.3,120,190,110,225,525,M,Open,SBD,Raw
10,Amrit Ekka,1990-08-16,,CHT,112.7,120,190,130,195,515,M,Open,SBD,Raw
11,Geo Varghese,1990-03-01,,RAJ,106.4,120,160,100,225,485,M,Open,SBD,Raw
DQ,Gaurao Patil,1992-03-29,,OFB,106.8,120,,,,,M,Open,SBD,Raw
DQ,Aurangazeb Khurram,1974-11-16,,WB,109.4,120,240,150,,,M,Open,SBD,Raw
1,Tarandeep Singh,1989-06-03,,ODI,135.2,120+,250,130,230,610,M,Open,SBD,Raw
2,Vickram Jeet Singh,1996-04-06,,J&k,152.3,120+,300,150,100,550,M,Open,SBD,Raw
3,L. Nathivanan,1992-06-02,,PUD,120.8,120+,180,115,220,515,M,Open,SBD,Raw
4,Ganesh Jagtap,1991-07-27,,MAH,135.2,120+,185,123,185,492.5,M,Open,SBD,Raw
5,N. Dinakumar,1989-01-03,,MNP,123.5,120+,150,75,140,365,M,Open,SBD,Raw
1,Munna Kumar,2001-06-15,,BIH,48.4,53,117.5,95,142.5,355,M,Sub-Juniors,SBD,Raw
2,Arindam Das,2002-10-18,,WB,51.7,53,110,95,150,355,M,Sub-Juniors,SBD,Raw
3,Dhruv Raj Kure,2002-06-02,,MP,53,53,110,80,165,355,M,Sub-Juniors,SBD,Raw
4,Pratham Palande,2001-12-27,,MAH,52.3,53,120,60,150,330,M,Sub-Juniors,SBD,Raw
5,K. J. Abhiram,2001-12-28,,AP,51.2,53,100,67.5,155,322.5,M,Sub-Juniors,SBD,Raw
6,Khushal Patel,2002-02-12,,CHT,52.3,53,110,67.5,140,317.5,M,Sub-Juniors,SBD,Raw
7,Chandrashaker Engle,2001-07-12,,MP,52.5,53,95,65,150,310,M,Sub-Juniors,SBD,Raw
8,M Ibomcha,2002-03-16,,MNP,52.8,53,100,52.5,152.5,305,M,Sub-Juniors,SBD,Raw
9,Kuldeep Singh,2003-07-20,,UP,53,53,85,67.5,125,277.5,M,Sub-Juniors,SBD,Raw
10,Gaurav Sahu,2001-10-26,,RAJ,48.9,53,107.5,45,120,272.5,M,Sub-Juniors,SBD,Raw
11,S. R. Kuldeep,2000-09-15,,TEL,49.6,53,100,50,110,260,M,Sub-Juniors,SBD,Raw
12,Abhit Sharma,2002-02-27,,HP,50.1,53,72.5,45,125,242.5,M,Sub-Juniors,SBD,Raw
13,Masoom Yadav,2004-01-18,,CHT,53,53,70,42.5,90,202.5,M,Sub-Juniors,SBD,Raw
DQ,Sagar Chouhan,2002-04-10,,HP,53,53,,,,,M,Sub-Juniors,SBD,Raw
DQ,Deepak,2001-02-27,,DEL,53,53,,,,,M,Sub-Juniors,SBD,Raw
DQ,Sagar Kumar,2000-07-09,,BIH,47.5,53,,,,,M,Sub-Juniors,SBD,Raw
1,Ravisha R,2000-05-30,,PUD,58.8,59,145,90,190,425,M,Sub-Juniors,SBD,Raw
2,Ranjish Kumar,2001-07-15,,UP,59,59,150,75,195,420,M,Sub-Juniors,SBD,Raw
3,Sasikumar R,2000-05-07,,PUD,57.7,59,155,67.5,180,402.5,M,Sub-Juniors,SBD,Raw
4,Sourabh Dhanware,2004-07-16,,MP,58.3,59,145,85,170,400,M,Sub-Juniors,SBD,Raw
5,Shahil Hussain.C,2000-04-22,,KER,57,59,132.5,92.5,167.5,392.5,M,Sub-Juniors,SBD,Raw
6,Sidhan. S,2000-09-18,,KER,56.9,59,130,75,172.5,377.5,M,Sub-Juniors,SBD,Raw
7,Mohd Javed,2000-07-08,,UTK,56.5,59,130,85,160,375,M,Sub-Juniors,SBD,Raw
8,Sandeep Sharma,2002-07-10,,UP,59,59,105,80,170,355,M,Sub-Juniors,SBD,Raw
9,Asif,2001-11-08,,UTK,56,59,110,80,150,340,M,Sub-Juniors,SBD,Raw
10,Deependra Gurjer,2002-01-15,,RAJ,58.3,59,112.5,75,150,337.5,M,Sub-Juniors,SBD,Raw
11,Swapnil Chandanshive,2000-05-16,,MAH,58.5,59,107.5,60,150,317.5,M,Sub-Juniors,SBD,Raw
12,Ravi Kumar Prasad,2002-11-04,,WB,55.8,59,107.5,67.5,120,295,M,Sub-Juniors,SBD,Raw
13,Ankush,2001-08-28,,PUN,58.6,59,90,65,140,295,M,Sub-Juniors,SBD,Raw
14,Naman Joshi,2001-05-10,,DEL,58.6,59,97.5,65,125,287.5,M,Sub-Juniors,SBD,Raw
15,Bijender Bhati,2003-10-01,,HAR,59,59,85,55,130,270,M,Sub-Juniors,SBD,Raw
16,K. Pavan Kumar,2000-04-03,,TEL,58.7,59,100,60,100,260,M,Sub-Juniors,SBD,Raw
17,Solanki Raj.S,2001-11-14,,GUJ,55.5,59,70,40,110,220,M,Sub-Juniors,SBD,Raw
18,Nikhil Adhana,2001-08-20,,HAR,54.8,59,60,50,95,205,M,Sub-Juniors,SBD,Raw
DQ,Debashish Dey,2003-02-01,,ODI,58.4,59,145,65,,,M,Sub-Juniors,SBD,Raw
DQ,Th. Sadananda,2002-02-01,,MNP,59,59,,,,,M,Sub-Juniors,SBD,Raw
1,Bijin Sanki,2000-03-20,,KER,64.8,66,165,90,215,470,M,Sub-Juniors,SBD,Raw
2,Naresh Ramawat,2002-12-17,,RAJ,64.7,66,160,80,210,450,M,Sub-Juniors,SBD,Raw
3,Akshay Kumar Sahadur,2001-09-10,,MAH,66,66,140,95,160,395,M,Sub-Juniors,SBD,Raw
4,Nitesh Panwar,2001-12-28,,MP,65.3,66,137.5,70,160,367.5,M,Sub-Juniors,SBD,Raw
5,K. Pavan Kumar,2001-06-15,,AP,65.4,66,125,65,160,350,M,Sub-Juniors,SBD,Raw
7,Amarjeet Mahato,2001-07-24,,TEL,65.1,66,115,60,160,335,M,Sub-Juniors,SBD,Raw
6,Alam Brar,2001-05-16,,PUN,65,66,110,85,140,335,M,Sub-Juniors,SBD,Raw
8,Airudh Sharma,2001-06-07,,HP,66,66,120,75,140,335,M,Sub-Juniors,SBD,Raw
9,Tarun,2000-11-26,,DEL,63.9,66,100,70,160,330,M,Sub-Juniors,SBD,Raw
10,Ayush Pathania,2001-08-26,,HP,64.9,66,110,70,150,330,M,Sub-Juniors,SBD,Raw
11,Mukesh Kumar,2001-01-01,,UTK,64.7,66,105,65,155,325,M,Sub-Juniors,SBD,Raw
12,Amit Sarkar,2001-08-23,,WB,65,66,110,75,140,325,M,Sub-Juniors,SBD,Raw
13,Deepak.V,2000-08-17,,PUD,63.2,66,100,65,130,295,M,Sub-Juniors,SBD,Raw
14,Kunal Sharma,2003-04-08,,HAR,65.2,66,85,50,130,265,M,Sub-Juniors,SBD,Raw
15,Nitin.J,2002-12-28,,CHT,61.7,66,70,50,140,260,M,Sub-Juniors,SBD,Raw
16,Suraj Kumar,2001-05-14,,BIH,61.5,66,90,45,110,245,M,Sub-Juniors,SBD,Raw
17,Jatin.J,2002-12-28,,CHT,63.3,66,80,40,115,235,M,Sub-Juniors,SBD,Raw
18,S. David Singh,2003-12-08,,MNP,59.7,66,62.5,50,100,212.5,M,Sub-Juniors,SBD,Raw
DQ,Abhishek Mohanta,2002-10-23,,ODI,64.8,66,140,90,,,M,Sub-Juniors,SBD,Raw
1,D. Praveen Yadav,2000-01-20,,TEL,73.5,74,195,115,240,550,M,Sub-Juniors,SBD,Raw
2,Risvi Rajan George,2000-10-23,,KER,69.9,74,150,103,190,442.5,M,Sub-Juniors,SBD,Raw
3,B. Anil Kumar,2000-03-22,,AP,72.7,74,157.5,90,190,437.5,M,Sub-Juniors,SBD,Raw
4,Md. Imran,2000-07-14,,UP,73.1,74,150,100,185,435,M,Sub-Juniors,SBD,Raw
5,Ashish Upadhyay,2001-01-14,,RAJ,72.6,74,140,87.5,195,422.5,M,Sub-Juniors,SBD,Raw
6,Mohit Chaudhary,2001-12-02,,UP,69.8,74,142.5,80,185,407.5,M,Sub-Juniors,SBD,Raw
7,Shibam Mohanty,2000-10-31,,ODI,74,74,132.5,90,162.5,385,M,Sub-Juniors,SBD,Raw
8,Raj Pardeshi,2000-01-14,,MAH,71.4,74,125,85,170,380,M,Sub-Juniors,SBD,Raw
9,A. Dinesh,2000-08-18,,TN,69.7,74,130,65,172.5,367.5,M,Sub-Juniors,SBD,Raw
10,Ragul E,2000-09-03,,PUD,73.3,74,132.5,55,170,357.5,M,Sub-Juniors,SBD,Raw
11,M. Durga Prasad,2002-07-14,,AP,70.8,74,110,50,130,290,M,Sub-Juniors,SBD,Raw
12,Rohit Chandrawanshi,2001-11-07,,CHT,66.3,74,80,57.5,120,257.5,M,Sub-Juniors,SBD,Raw
13,Aman Chandil.A,2000-09-21,,HAR,69.3,74,65,60,110,235,M,Sub-Juniors,SBD,Raw
14,Saksham Dadhwal,2003-04-27,,HP,66.4,74,70,37.5,110,217.5,M,Sub-Juniors,SBD,Raw
15,Anant Sharma,2000-11-14,,UTK,71.3,74,60,45,105,210,M,Sub-Juniors,SBD,Raw
DQ,Kh. Sunder Singh,2000-03-05,,MNP,73.5,74,,,,,M,Sub-Juniors,SBD,Raw
DQ,Mannu Chaudhary,2003-03-05,,DEL,74,74,140,,,,M,Sub-Juniors,SBD,Raw
1,Rachit Gahlot,2000-12-05,,DEL,80.4,83,190,108,192.5,490,M,Sub-Juniors,SBD,Raw
2,Rahul Joshi,2000-04-19,,RAJ,80.9,83,172.5,113,202.5,487.5,M,Sub-Juniors,SBD,Raw
3,Joginder Ram,2000-05-05,,JHAR,81.4,83,177.5,115,192.5,485,M,Sub-Juniors,SBD,Raw
4,Malsawmkima,2001-02-23,,MIZO,77.9,83,180,95,200,475,M,Sub-Juniors,SBD,Raw
5,Dipak Shelake,2000-08-03,,MAH,80.7,83,170,87.5,207.5,465,M,Sub-Juniors,SBD,Raw
6,Ananthakrishna K.S,2000-08-17,,KER,75.2,83,120,95,205,420,M,Sub-Juniors,SBD,Raw
7,Salman.S,2000-06-26,,KER,80,83,165,67.5,187.5,420,M,Sub-Juniors,SBD,Raw
8,Kartik Nayak,2001-08-15,,MAH,80.6,83,155,85,180,420,M,Sub-Juniors,SBD,Raw
9,U. Lokesh Goud,2000-02-13,,TEL,79.1,83,165,70,170,405,M,Sub-Juniors,SBD,Raw
10,Karan,2001-12-24,,UP,79.3,83,140,80,180,400,M,Sub-Juniors,SBD,Raw
11,Abhishek Kumar Dubey,2003-08-07,,UP,81.8,83,125,95,170,390,M,Sub-Juniors,SBD,Raw
12,S. Akhileshwar,2001-01-06,,PUD,77.9,83,150,77.5,160,387.5,M,Sub-Juniors,SBD,Raw
13,Chandru. R. S,2001-08-30,,TN,80.9,83,140,80,165,385,M,Sub-Juniors,SBD,Raw
14,Akhilendra Sharma,2001-12-29,,CHT,76.2,83,110,75,195,380,M,Sub-Juniors,SBD,Raw
15,Gajendra Swami,2001-02-05,,RAJ,80.3,83,125,70,180,375,M,Sub-Juniors,SBD,Raw
16,Ashish Yadav,2000-02-09,,MP,74.5,83,130,90,150,370,M,Sub-Juniors,SBD,Raw
17,Dareshan,2001-07-29,,HAR,77.6,83,105,103,150,357.5,M,Sub-Juniors,SBD,Raw
18,Granish Soibam,2003-03-30,,MNP,78.1,83,110,55,130,295,M,Sub-Juniors,SBD,Raw
19,Devansh,2002-04-12,,HP,76.5,83,45,30,60,135,M,Sub-Juniors,SBD,Raw
1,Ariharan M,2000-10-12,,PUD,88.3,93,195,87.5,230,512.5,M,Sub-Juniors,SBD,Raw
2,Varshith S. Rao,2002-02-25,,KTK,89.1,93,177.5,115,200,492.5,M,Sub-Juniors,SBD,Raw
3,Mukesh Kumar Singh,2000-10-05,,JHAR,90.9,93,155,123,200,477.5,M,Sub-Juniors,SBD,Raw
4,Sankhadeep Mondal,2001-04-17,,WB,92.1,93,160,85,205,450,M,Sub-Juniors,SBD,Raw
5,Sanskar Singh Parihar,2000-11-07,,MP,91,93,145,103,192.5,440,M,Sub-Juniors,SBD,Raw
6,Yuvashankar S,2001-07-03,,PUD,89,93,177.5,65,165,407.5,M,Sub-Juniors,SBD,Raw
8,Vipin,2001-10-03,,DEL,92.6,93,130,92.5,180,402.5,M,Sub-Juniors,SBD,Raw
7,Daksh Singh Chouhan,2004-04-19,,RAJ,83.1,93,137.5,95,170,402.5,M,Sub-Juniors,SBD,Raw
9,L. Sharath Chandra Reddy,2001-05-26,,TEL,84.5,93,157.5,70,165,392.5,M,Sub-Juniors,SBD,Raw
10,Abhishek Hooda,2002-04-05,,HAR,88.9,93,120,105,160,385,M,Sub-Juniors,SBD,Raw
11,Rahul Kumar,2001-07-05,,BIH,92,93,122.5,80,145,347.5,M,Sub-Juniors,SBD,Raw
12,Nikhil Kumar,2001-03-12,,BIH,86.5,93,110,60,155,325,M,Sub-Juniors,SBD,Raw
13,Shagun Uppadhiya,2001-09-20,,HP,90.7,93,95,57.5,150,302.5,M,Sub-Juniors,SBD,Raw
14,Ankit,2001-04-01,,HAR,86.6,93,105,50,120,275,M,Sub-Juniors,SBD,Raw
15,Devesh Kumar Sahu,2004-07-09,,CHT,91.9,93,82.5,50,100,232.5,M,Sub-Juniors,SBD,Raw
1,Lal Hmangaihsanga,2001-04-11,,MIZO,100.9,105,210,125,235,570,M,Sub-Juniors,SBD,Raw
2,Yogesh G,2000-12-04,,PUD,98.8,105,210,87.5,200,497.5,M,Sub-Juniors,SBD,Raw
3,Althaf Omer,2001-06-07,,KER,101.5,105,175,103,190,467.5,M,Sub-Juniors,SBD,Raw
4,Hanuman Ojha,2002-10-10,,RAJ,103.6,105,137.5,118,192.5,447.5,M,Sub-Juniors,SBD,Raw
5,Mohammed Owaizuddin,2001-04-03,,TEL,103.2,105,140,90,187.5,417.5,M,Sub-Juniors,SBD,Raw
6,K. Sagar,2000-03-06,,TEL,100.7,105,147.5,85,180,412.5,M,Sub-Juniors,SBD,Raw
7,Chirag Chaudhary,2000-10-12,,DEL,94.3,105,150,92.5,167.5,410,M,Sub-Juniors,SBD,Raw
8,Abhiam Sharma,2000-04-05,,J&k,95.8,105,145,87.5,160,392.5,M,Sub-Juniors,SBD,Raw
9,Saurav Gurung,2000-02-28,,CHT,93.1,105,125,85,167.5,377.5,M,Sub-Juniors,SBD,Raw
10,Parth Sawant,2002-10-05,,MAH,105,105,125,85,160,370,M,Sub-Juniors,SBD,Raw
11,Rahul Singh,2002-08-13,,J&k,93.4,105,125,87.5,147.5,360,M,Sub-Juniors,SBD,Raw
12,Arindra Das,2002-10-18,,WB,95.1,105,125,72.5,145,342.5,M,Sub-Juniors,SBD,Raw
13,Shiva,2000-07-03,,UTK,99.2,105,120,65,150,335,M,Sub-Juniors,SBD,Raw
14,Raghav.R,2000-09-24,,DEL,93.6,105,120,50,140,310,M,Sub-Juniors,SBD,Raw
15,Chunilal Choudhary,2001-06-17,,MAH,103.4,105,97.5,52.5,157.5,307.5,M,Sub-Juniors,SBD,Raw
1,Nikhil Saini,2000-12-29,,RAJ,115.4,120,177.5,85,215,477.5,M,Sub-Juniors,SBD,Raw
2,Aman Dev Singh,2001-01-28,,J&k,105.3,120,175,95,180,450,M,Sub-Juniors,SBD,Raw
3,Kushagra Joshi,2001-01-05,,MAH,118.1,120,180,75,185,440,M,Sub-Juniors,SBD,Raw
4,Dewesh Raj,2002-04-11,,BIH,110.5,120,155,82.5,150,387.5,M,Sub-Juniors,SBD,Raw
5,Suryakant Patel,2000-09-29,,MP,105.1,120,130,90,160,380,M,Sub-Juniors,SBD,Raw
6,Diptarka Kumar,2000-12-23,,WB,109.7,120,150,75,140,365,M,Sub-Juniors,SBD,Raw
7,Kanishak Sharma,2001-12-02,,DEL,109.6,120,145,60,140,345,M,Sub-Juniors,SBD,Raw
1,Rohit Ojha,2002-10-07,,RAJ,124.4,120+,155,92.5,190,437.5,M,Sub-Juniors,SBD,Raw
2,Vishnu Mohan.V.M,2000-08-18,,KER,121.7,120+,155,100,180,435,M,Sub-Juniors,SBD,Raw
3,Tanishq Grover,2002-05-01,,MP,120.7,120+,162.5,80,155,397.5,M,Sub-Juniors,SBD,Raw
4,Rahul Gowtham,2000-01-07,,AP,122.3,120+,135,55,140,330,M,Sub-Juniors,SBD,Raw
5,Sikander,2003-02-02,,HAR,121.3,120+,120,60,120,300,M,Sub-Juniors,SBD,Raw
1,Geo Joseph,1995-11-12,,KER,52.9,53,120,87.5,172.5,380,M,Juniors,SBD,Raw
3,Himanshu Kure,1996-11-11,,MP,52.8,53,125,80,167.5,372.5,M,Juniors,SBD,Raw
2,Sarup Chakraborty,1998-07-29,,WB,52.6,53,125,82.5,165,372.5,M,Juniors,SBD,Raw
4,Sujit Kumar Yadav,1999-10-16,,UP,51.8,53,120,90,150,360,M,Juniors,SBD,Raw
5,Lalit Kumar,1997-12-23,,HAR,51.6,53,115,80,155,350,M,Juniors,SBD,Raw
6,Zala Ravindra Singh,1995-05-13,,GUJ,51.2,53,122.5,77.5,145,345,M,Juniors,SBD,Raw
7,Abhiraj R S,1999-10-26,,KER,50.9,53,110,72.5,160,342.5,M,Juniors,SBD,Raw
8,Niranjan Kumar,1998-04-14,,BIH,52.4,53,95,85,140,320,M,Juniors,SBD,Raw
9,S. Pavan Kumar,1997-11-17,,AP,53,53,105,67.5,145,317.5,M,Juniors,SBD,Raw
10,Harshul Sharma,1998-09-20,,J&k,53,53,80,70,147.5,297.5,M,Juniors,SBD,Raw
11,Mohammad Arif,1999-12-12,,UTK,51.9,53,70,50,100,220,M,Juniors,SBD,Raw
DQ,S. Gopala Krishnan,1996-09-08,,PUD,52,53,102.5,72.5,,,M,Juniors,SBD,Raw
1,Ujjal Burman,1998-03-04,,WB,59,59,155,85,217.5,457.5,M,Juniors,SBD,Raw
2,Lakhyajit Changmai,1996-12-31,,ASM,57.6,59,150,82.5,217.5,450,M,Juniors,SBD,Raw
3,Manmohan Rana,1998-09-12,,DEL,58.7,59,165,87.5,197.5,450,M,Juniors,SBD,Raw
4,Asif Ali,1997-08-28,,MP,57.5,59,165,105,175,445,M,Juniors,SBD,Raw
5,Lal Thangmawia,1995-11-05,,MIZO,58.8,59,165,105,175,445,M,Juniors,SBD,Raw
6,Mihir Soni,1999-12-28,,RAJ,58.2,59,160,80,190,430,M,Juniors,SBD,Raw
7,Y Satish Kumar,1995-08-09,,AP,58.6,59,157.5,95,175,427.5,M,Juniors,SBD,Raw
8,Monu Kumar,1996-02-02,,RAJ,58.1,59,160,80,185,425,M,Juniors,SBD,Raw
9,Vijay Jagtap,1998-05-03,,MAH,57.9,59,150,90,177.5,417.5,M,Juniors,SBD,Raw
10,G. Durgasatyanarayana,1999-12-27,,AP,58.1,59,127.5,75,192.5,395,M,Juniors,SBD,Raw
11,Varun Gupta,1996-09-05,,J&k,59,59,127.5,97.5,170,395,M,Juniors,SBD,Raw
12,C. Vishwajeet,1997-06-23,,TEL,57.5,59,125,87.5,180,392.5,M,Juniors,SBD,Raw
13,Ranjan Hansda,1997-04-07,,ODI,55.9,59,120,90,180,390,M,Juniors,SBD,Raw
14,Rakesh.M,1996-06-12,,KTK,58.3,59,130,70,160,360,M,Juniors,SBD,Raw
15,Niraj Kumar,1998-04-15,,BIH,58.6,59,130,95,135,360,M,Juniors,SBD,Raw
16,Priyanshu Kumar,1997-09-05,,BIH,57.3,59,105,77.5,175,357.5,M,Juniors,SBD,Raw
17,Naresh,1995-03-06,,HAR,57.4,59,95,87.5,165,347.5,M,Juniors,SBD,Raw
19,Ashish,1996-03-08,,HAR,59,59,75,65,160,300,M,Juniors,SBD,Raw
18,Manish Choudhary,1996-09-12,,HP,58.9,59,90,70,140,300,M,Juniors,SBD,Raw
20,R. Dinesh,1998-11-03,,PUD,58.5,59,80,52.5,110,242.5,M,Juniors,SBD,Raw
DQ,Santanu Banerjee,1996-03-12,,WB,59,59,,,,,M,Juniors,SBD,Raw
1,Biswajeet Jena,1995-06-15,,ODI,66,66,175,135,210,520,M,Juniors,SBD,Raw
2,Ramfanmawia,1998-04-20,,MIZO,64.9,66,170,138,210,517.5,M,Juniors,SBD,Raw
3,S. Kamalapriyan,1995-06-27,,PUD,65.8,66,200,100,210,510,M,Juniors,SBD,Raw
4,K.C.N.S. Narayana,1996-03-21,,AP,64.7,66,170,110,200,480,M,Juniors,SBD,Raw
5,Prasad Fernandes,1996-05-15,,KTK,64.2,66,165,113,200,477.5,M,Juniors,SBD,Raw
6,Dhurv Naik,1997-12-05,,MP,64.8,66,155,118,200,472.5,M,Juniors,SBD,Raw
7,Sudama Singh,1997-05-11,,ODI,66,66,165,105,200,470,M,Juniors,SBD,Raw
8,P. Sravan Kumar,1996-09-03,,TEL,66,66,160,115,185,460,M,Juniors,SBD,Raw
9,Karan,1996-02-02,,PUN,64,66,152.5,92.5,200,445,M,Juniors,SBD,Raw
10,Manish Kumar,1998-04-17,,BIH,65.5,66,157.5,115,170,442.5,M,Juniors,SBD,Raw
11,Sanjay.N,1998-08-17,,KTK,63.8,66,152.5,85,190,427.5,M,Juniors,SBD,Raw
12,Sandeep,1998-06-02,,DEL,66,66,130,103,190,422.5,M,Juniors,SBD,Raw
13,K. Srisailam,1996-06-10,,TEL,64.1,66,142.5,85,180,407.5,M,Juniors,SBD,Raw
14,R. Aadith,1996-11-11,,CHT,66,66,125,80,175,380,M,Juniors,SBD,Raw
15,Peddurisi Satish,1996-09-30,,AP,62.1,66,142.5,75,160,377.5,M,Juniors,SBD,Raw
16,Dalveer Kumar,1996-03-05,,J & k,63,66,140,75,160,375,M,Juniors,SBD,Raw
17,A. Ajith Kumar,1998-02-03,,PUD,64,66,125,72.5,155,352.5,M,Juniors,SBD,Raw
18,Ritwick Hazra,1999-08-31,,WB,64.1,66,110,70,165,345,M,Juniors,SBD,Raw
DQ,Adarsh Tanwar,1998-03-04,,RAJ,64.7,66,,,,,M,Juniors,SBD,Raw
DQ,Nirmal N S,1999-06-26,,TN,65.1,66,,,,,M,Juniors,SBD,Raw
DQ,Vinay Vastrakar,1999-10-12,,CHT,64.6,66,,,,,M,Juniors,SBD,Raw
DQ,Arjun Tomar,1996-02-03,,MP,66,66,170.5,110,,,M,Juniors,SBD,Raw
DQ,Rhythm Sharma,1997-09-06,,RAJ,64.6,66,152.5,85,,,M,Juniors,SBD,Raw
1,Dheeraj Singh,1995-04-06,,MP,74,74,215,128,260,602.5,M,Juniors,SBD,Raw
2,Shivam,1996-11-08,,BIH,72.9,74,190,138,210,537.5,M,Juniors,SBD,Raw
3,Rahul Bhagat,1997-02-28,,JHAR,73.5,74,160,110,250,520,M,Juniors,SBD,Raw
4,G.R.Mahesh,1998-05-06,,KTK,73.5,74,155,115,230,500,M,Juniors,SBD,Raw
5,Arjun Singh Koli,1999-07-10,,UP,70.4,74,170,125,200,495,M,Juniors,SBD,Raw
6,Rakesh Singh,1999-10-10,,UP,70.6,74,175,118,200,492.5,M,Juniors,SBD,Raw
7,Sarat Nayak,1996-07-02,,ODI,73.3,74,160,110,215,485,M,Juniors,SBD,Raw
8,Akshay Navale,1995-07-06,,MAH,71.3,74,177.5,100,195,472.5,M,Juniors,SBD,Raw
9,Gaurav Byawat,1997-11-18,,RAJ,72.7,74,162.5,103,195,460,M,Juniors,SBD,Raw
10,Somashekar.N,1996-12-05,,KTK,72.2,74,160,97.5,190,447.5,M,Juniors,SBD,Raw
11,Abhijit Roy,1998-02-10,,WB,72.5,74,165,85,190,440,M,Juniors,SBD,Raw
12,Udhay Veer Singh,1998-08-03,,J & k,73.5,74,125,133,180,437.5,M,Juniors,SBD,Raw
13,G. Pavith,1997-01-03,,TN,71.2,74,140,110,185,435,M,Juniors,SBD,Raw
14,Varun Paliwal,1998-05-09,,DEL,74,74,125,97.5,207.5,430,M,Juniors,SBD,Raw
15,Aatish Kumar Bej,1996-12-08,,ODI,68.5,74,150,90,180,420,M,Juniors,SBD,Raw
16,Saiful Islam,1996-06-11,,CHT,72,74,132.5,85,160,377.5,M,Juniors,SBD,Raw
18,R. Ajmal Ahamed,1998-02-02,,PUD,68.8,74,120,72.5,165,357.5,M,Juniors,SBD,Raw
17,J. Iyyanar,1998-03-12,,PUD,67.1,74,135,72.5,150,357.5,M,Juniors,SBD,Raw
19,Sahil Dhiman,1996-12-04,,HP,73.7,74,112.5,85,150,347.5,M,Juniors,SBD,Raw
20,Sohit Singh,1995-03-15,,HAR,69.9,74,80,80,140,300,M,Juniors,SBD,Raw
DQ,M. Loveson Singh,2001-07-02,,MNP,66.5,74,,,,,M,Juniors,SBD,Raw
DQ,Jeveet Soibam,1999-03-01,,MNP,70.2,74,,,,,M,Juniors,SBD,Raw
DQ,Manodeep Shil,1997-12-27,,WB,72.6,74,,,,,M,Juniors,SBD,Raw
DQ,G. Sumanth Chowdary,1998-03-23,,TEL,73.4,74,,,,,M,Juniors,SBD,Raw
1,Joseph Lalnunmawia,1995-07-12,,MIZO,83,83,210,140,237.5,587.5,M,Juniors,SBD,Raw
2,Shivam Kumar Prajapath,1997-04-15,,TEL,82.9,83,205,123,255,582.5,M,Juniors,SBD,Raw
3,Karthik.S.Poojary,1995-11-11,,KTK,81.4,83,200,120,240,560,M,Juniors,SBD,Raw
4,Omkar Kailas Khedkar,1998-10-04,,MAH,80.2,83,197.5,120,230,547.5,M,Juniors,SBD,Raw
5,K. Trinadh,1995-10-13,,AP,82.1,83,185,120,240,545,M,Juniors,SBD,Raw
6,Sushil Goswami,1996-10-15,,DEL,82.9,83,195,130,210,535,M,Juniors,SBD,Raw
7,Parmod,1996-07-08,,HAR,81.9,83,190,120,220,530,M,Juniors,SBD,Raw
8,Dusmanta Sahoo,1995-06-26,,ODI,77.8,83,160,140,215,515,M,Juniors,SBD,Raw
9,Shamon K. Shaji,1998-11-02,,KER,79.4,83,180,100,230,510,M,Juniors,SBD,Raw
10,Nafish Khan,1995-01-01,,MP,81.4,83,180,135,195,510,M,Juniors,SBD,Raw
11,Rinshad M. R,1999-08-23,,KER,83,83,180,95,220,495,M,Juniors,SBD,Raw
12,Naveen Chand Yadav,1998-09-02,,UP,76.2,83,165,110,210,485,M,Juniors,SBD,Raw
14,Adarsh.D.Shethy,1997-05-28,,KTK,82.6,83,155,100,225,480,M,Juniors,SBD,Raw
13,Dinesh Chandra Sahu,1998-04-26,,ODI,79.6,83,175,95,210,480,M,Juniors,SBD,Raw
15,Chandan Kumar Singh,1998-05-03,,BIH,76.2,83,155,100,210,465,M,Juniors,SBD,Raw
16,Ankit Kumar,1996-06-05,,J&k,74.2,83,160,113,180,452.5,M,Juniors,SBD,Raw
17,R. Ramanan,1999-08-17,,PUD,82.4,83,165,80,195,440,M,Juniors,SBD,Raw
18,Piyush Pankaj,1996-03-06,,BIH,82.5,83,140,108,182.5,430,M,Juniors,SBD,Raw
19,G. Ezhumalai,1999-03-24,,PUD,81.3,83,150,62.5,185,397.5,M,Juniors,SBD,Raw
20,Jatin Singh Manhas,1998-01-01,,J&k,76.8,83,122.5,108,155,385,M,Juniors,SBD,Raw
21,Harman Jeet Singh,1997-11-18,,HP,78.4,83,115,95,170,380,M,Juniors,SBD,Raw
22,Sumit Jadhav,1995-10-19,,GUJ,79.6,83,120,85,150,355,M,Juniors,SBD,Raw
23,Ashutosh Sharma,1998-04-01,,HP,76.5,83,120,70,160,350,M,Juniors,SBD,Raw
24,Rajpal Chandrakar,1996-01-26,,CHT,79.9,83,115,70,150,335,M,Juniors,SBD,Raw
25,Joginder Choudhary,1995-07-23,,HAR,78.5,83,80,75,150,305,M,Juniors,SBD,Raw
DQ,Rejul Ravi,1996-12-27,,DEL,82.3,83,200,100,,,M,Juniors,SBD,Raw
DQ,Pankaj Das,1995-12-12,,ASM,82.4,83,180,110,,,M,Juniors,SBD,Raw
DQ,Rony Bhakat,1997-02-22,,WB,76.3,83,,,,,M,Juniors,SBD,Raw
DQ,Sandeep Sony,1997-09-10,,RAJ,78.2,83,155,100,,,M,Juniors,SBD,Raw
1,Abraham Lalthakima,1997-05-14,,MIZO,92.2,93,230,150,250,630,M,Juniors,SBD,Raw
2,Harshal Vadke,1995-08-24,,MAH,89,93,252.5,135,230,617.5,M,Juniors,SBD,Raw
3,Akshay Kale,1998-01-28,,MAH,88.8,93,225,138,250,612.5,M,Juniors,SBD,Raw
4,B Bharath Yadav,1995-05-16,,TEL,91.8,93,230,125,240,595,M,Juniors,SBD,Raw
5,Mohammed Shan.A.S,1997-10-17,,KER,89.4,93,210,113,240,562.5,M,Juniors,SBD,Raw
6,G. Sai Krishna,1995-12-24,,AP,92.8,93,210,95,250,555,M,Juniors,SBD,Raw
7,Arjun Saini,1995-12-30,,J&k,88,93,185,133,220,537.5,M,Juniors,SBD,Raw
8,Kiran K.K,1996-03-03,,KER,83.3,93,210,110,200,520,M,Juniors,SBD,Raw
9,Samrat Mukherjee,1998-08-23,,WB,89.1,93,180,110,200,490,M,Juniors,SBD,Raw
11,Lokesh Baghel,1999-11-06,,UP,93,93,170,125,190,485,M,Juniors,SBD,Raw
10,Bikash Dutta,1999-07-06,,ASM,85.3,93,180,115,190,485,M,Juniors,SBD,Raw
12,Raghav Bhardwaj,1999-09-21,,RAJ,86.1,93,150,110,205,465,M,Juniors,SBD,Raw
13,Md. Amir,1995-12-03,,BIH,83.9,93,145,100,160,405,M,Juniors,SBD,Raw
DQ,Omkar Kailas Khedkar,1998-01-11,,BIH,85.8,93,,,,,M,Juniors,SBD,Raw
1,Ljonathan Lalbiakhlua,1995-12-17,,MIZO,102.3,105,222.5,165,235,622.5,M,Juniors,SBD,Raw
2,Shivam Sharma,1995-10-15,,DEL,101.7,105,195,148,250,592.5,M,Juniors,SBD,Raw
3,Ranajit Paul,1997-08-03,,WB,95.7,105,200,155,220,575,M,Juniors,SBD,Raw
4,T. Akhil Suman,1998-03-06,,AP,103.8,105,200,110,252.5,562.5,M,Juniors,SBD,Raw
5,Sudarshan Tiwari,1995-08-18,,MP,104.8,105,190,143,215,547.5,M,Juniors,SBD,Raw
6,Prathmesh Pawaskar,1996-12-04,,MAH,103.5,105,192.5,115,230,537.5,M,Juniors,SBD,Raw
7,Kapil Dev Teotia,1996-04-01,,UP,96.4,105,170,113,220,502.5,M,Juniors,SBD,Raw
8,K. Srikanth,1996-05-29,,TEL,96.9,105,175,105,220,500,M,Juniors,SBD,Raw
9,Ankit Sankhla,1998-03-13,,RAJ,97.2,105,180,113,200,492.5,M,Juniors,SBD,Raw
10,Rajwinder Singh,1999-05-11,,PUN,99.8,105,150,90,180,420,M,Juniors,SBD,Raw
DQ,Akash,1999-01-23,,DEL,93.5,105,,,,,M,Juniors,SBD,Raw
DQ,Yaman Sharma,1999-12-08,,HAR,95.8,105,,,,,M,Juniors,SBD,Raw
1,Sagar.M.Pomal,1996-08-01,,GUJ,117.1,120,225,165,250,640,M,Juniors,SBD,Raw
2,Sumit Yadav,1995-07-25,,DEL,115.7,120,217.5,145,260,622.5,M,Juniors,SBD,Raw
3,Lalmuanpvia Tochhawng,1995-06-05,,MIZO,118.5,120,250,120,220,590,M,Juniors,SBD,Raw
4,Junaid Ansari,1996-03-09,,MAH,115.3,120,210,150,225,585,M,Juniors,SBD,Raw
6,Kaushal Sumedh,1995-10-12,,KTK,117.7,120,210,135,230,575,M,Juniors,SBD,Raw
5,E. Nitheish Raj,1999-10-07,,PUD,116.4,120,225,130,220,575,M,Juniors,SBD,Raw
7,Boska Jonathan,1995-10-14,,TEL,118.7,120,200,130,200,530,M,Juniors,SBD,Raw
8,Vikrant Nanda,1995-11-18,,CHD,114.4,120,180,140,190,510,M,Juniors,SBD,Raw
9,Hemant Sharma,1996-07-17,,PUN,113.4,120,190,110,200,500,M,Juniors,SBD,Raw
10,Vishwas Raj Shukla,1998-10-14,,UP,113.7,120,165,115,200,480,M,Juniors,SBD,Raw
11,Gazanfar Khan,1997-11-09,,MP,117.8,120,180,90,200,470,M,Juniors,SBD,Raw
12,Dhananjay Moyal,1999-10-18,,RAJ,106,120,130,90,180,400,M,Juniors,SBD,Raw
1,Syed Rabban Quadri,1996-08-21,,TEL,130.8,120+,320,195,260,775,M,Juniors,SBD,Raw
2,Christopher C. J,1996-03-04,,KER,131,120+,240,140,210,590,M,Juniors,SBD,Raw
3,Anil Kumar Patel,1995-06-30,,MP,131.8,120+,205,133,245,582.5,M,Juniors,SBD,Raw
1,S. V. Shaji,1974-02-09,,OFB,58.4,59,110,90,170,370,M,Masters 1,SBD,Raw
2,Mahesh Kumar,1975-02-25,,PUN,57.9,59,115,72.5,127.5,315,M,Masters 1,SBD,Raw
3,K. Suresh,1977-07-07,,TEL,56.18,59,117.5,65,130,312.5,M,Masters 1,SBD,Raw
4,Santosh Gawde,1976-06-11,,MAH,56.9,59,85,65,110,260,M,Masters 1,SBD,Raw
DQ,Sujit Kumar Giri,1972-04-15,,ODI,59,59,,,,,M,Masters 1,SBD,Raw
1,Laxman Prasad Goutam,1977-02-10,,MP,65.9,66,135,85,180,400,M,Masters 1,SBD,Raw
2,Arvind Kumar Kuswaha,1975-09-05,,UP,65.3,66,140,90,160,390,M,Masters 1,SBD,Raw
3,Mahesh Krishna Patil,1976-04-13,,MAH,64.8,66,137.5,90,150,377.5,M,Masters 1,SBD,Raw
4,Naveen Arora,1976-11-24,,DEL,65.4,66,115,100,140,355,M,Masters 1,SBD,Raw
5,Raikumar Naorem,1976-01-02,,MNP,66,66,80,85,100,265,M,Masters 1,SBD,Raw
6,G. Venkatesan,1972-09-12,,PUD,64.1,66,85,45,110,240,M,Masters 1,SBD,Raw
DQ,Arvind Shukla,1974-05-22,,MP,63.3,66,120,,,,M,Masters 1,SBD,Raw
1,K. Dayanand Reddy,1972-12-23,,TEL,74,74,185,108,200,492.5,M,Masters 1,SBD,Raw
2,Sheatrapal Chandrakar,1975-11-22,,CHT,73.2,74,180,105,190,475,M,Masters 1,SBD,Raw
3,Nitin Mhalaskar,1977-09-24,,MAH,73.5,74,165,118,190,472.5,M,Masters 1,SBD,Raw
4,Ashok.P.Mae,1972-10-05,,MAH,73.6,74,155,97.5,180,432.5,M,Masters 1,SBD,Raw
5,M. Chandra Shekar,1973-08-14,,TEL,73.1,74,170,100,160,430,M,Masters 1,SBD,Raw
6,V.K.Power Palani,1974-05-14,,TN,71.8,74,150,95,177.5,422.5,M,Masters 1,SBD,Raw
7,B.T.V.Ramana Murthy,1969-07-11,,ODI,73.2,74,155,75,190,420,M,Masters 1,SBD,Raw
8,Govinde Gowda.G.R,1974-07-06,,KTK,72.7,74,150,82.5,175,407.5,M,Masters 1,SBD,Raw
9,Arun Kumar.K.S,1977-04-11,,KTK,72.4,74,147.5,95,155,397.5,M,Masters 1,SBD,Raw
10,Mahesh Patel,1972-10-05,,CHT,69.6,74,130,85,180,395,M,Masters 1,SBD,Raw
11,Ajay Pal,1976-01-01,,UP,73.4,74,142.5,85,160,387.5,M,Masters 1,SBD,Raw
12,Sunil Kumar Shukla,1977-08-26,,MP,72.2,74,100,105,140,345,M,Masters 1,SBD,Raw
13,Rajesh Gupta,1969-07-03,,J&k,71.9,74,110,75,130,315,M,Masters 1,SBD,Raw
1,Shyam Singh,1973-05-17,,MP,77.5,83,175,125,190,490,M,Masters 1,SBD,Raw
2,Anuj Kumar Dixit,1973-03-01,,UP,76.7,83,185,100,185,470,M,Masters 1,SBD,Raw
3,A. Rajashekar,1969-04-29,,TEL,82.3,83,190,87.5,180,457.5,M,Masters 1,SBD,Raw
4,Amol Gosavi,1976-12-26,,MAH,79.6,83,172.5,100,170,442.5,M,Masters 1,SBD,Raw
5,Bhuvanendra Kumar,1978-01-01,,UP,76.3,83,130,120,170,420,M,Masters 1,SBD,Raw
6,Prafulla Amanatiya,1975-04-25,,ODI,81.3,83,145,97.5,160,402.5,M,Masters 1,SBD,Raw
7,Balbir Singh,1973-12-08,,RAJ,79.2,83,100,100,130,330,M,Masters 1,SBD,Raw
1,Anup Verma,1978-07-01,,MP,91.6,93,170,130,222.5,522.5,M,Masters 1,SBD,Raw
2,Vikram Singh Chouhan,1976-06-08,,RAJ,92.8,93,180,130,212.5,522.5,M,Masters 1,SBD,Raw
3,Lohith Muniras,1977-03-06,,KTK,93,93,210,110,187.5,507.5,M,Masters 1,SBD,Raw
4,Anil Bare,1976-02-11,,MAH,84.7,93,180,120,190,490,M,Masters 1,SBD,Raw
5,S. K. Mishra,1977-11-12,,OFB,92.1,93,170,115,190,475,M,Masters 1,SBD,Raw
6,Ajay Kumar,1977-11-28,,J&k,86,93,180,113,180,472.5,M,Masters 1,SBD,Raw
7,Uynus Patel,1976-08-13,,MP,85.5,93,175,130,155,460,M,Masters 1,SBD,Raw
8,Rakesh Kumar #3,1975-01-01,,UP,90.8,93,107.5,85,160,352.5,M,Masters 1,SBD,Raw
1,Sujay Janardhan,1976-11-13,,KTK,95.9,105,252.5,95,270,617.5,M,Masters 1,SBD,Raw
2,Shailendra Edwin,1969-09-16,,MP,99.9,105,200,155,220,575,M,Masters 1,SBD,Raw
3,Manoj Sil,1973-10-01,,WB,103.8,105,205,105,190,500,M,Masters 1,SBD,Raw
DQ,Nilesh Joshi,1972-01-30,,MAH,96.7,105,195,130,,,M,Masters 1,SBD,Raw
1,P. Lalchamliana,1977-10-11,,MIZO,110,120,220,170,235,625,M,Masters 1,SBD,Raw
2,J. Shiva Kumar,1974-05-24,,TEL,115,120,230,143,190,562.5,M,Masters 1,SBD,Raw
3,Mathew T J,1969-05-30,,KER,112.6,120,202.5,103,207.5,512.5,M,Masters 1,SBD,Raw
4,Anupam Singh,1977-07-02,,UP,107.3,120,177.5,133,192.5,502.5,M,Masters 1,SBD,Raw
5,Shashi Kapoor,1977-02-26,,PUN,106.5,120,145,135,210,490,M,Masters 1,SBD,Raw
6,Ajay Janardhan,1973-12-19,,KTK,112.8,120,185,108,195,487.5,M,Masters 1,SBD,Raw
7,Girish Binjwe,1971-10-01,,MAH,108.2,120,160,113,200,472.5,M,Masters 1,SBD,Raw
8,Parshant Dang,1976-07-14,,PUN,114.2,120,170,95,180,445,M,Masters 1,SBD,Raw
1,Ambar Joshi,1973-08-23,,MAH,144,120+,200,115,180,495,M,Masters 1,SBD,Raw
2,C. Ranjit Kumar,1970-08-15,,TEL,122.4,120+,155,100,170,425,M,Masters 1,SBD,Raw
1,Shankaramurthy.G,1968-06-01,,KTK,57.2,59,145,75,175,395,M,Masters 2,SBD,Raw
2,V. Appa Rao,1964-08-03,,AP,57.6,59,100,50,135,285,M,Masters 2,SBD,Raw
3,Kiran Kumar Kangiam,1963-03-01,,MNP,46.2,59,70,40,85,195,M,Masters 2,SBD,Raw
1,C.S.Syamlal,1961-05-02,,KER,66,66,180,90,195,465,M,Masters 2,SBD,Raw
2,Naresh Bahadur Srivastav,1964-07-12,,UP,62.3,66,140,75,150,365,M,Masters 2,SBD,Raw
3,Ateek Khan,1968-08-15,,MP,66,66,140,75,145,360,M,Masters 2,SBD,Raw
4,Doddi Satyanarayana,1959-07-16,,TEL,66,66,110,77.5,130,317.5,M,Masters 2,SBD,Raw
5,Narayan Sethy,1960-04-10,,ODI,66,66,105,100,110,315,M,Masters 2,SBD,Raw
6,Th.Ningthembi Singh,1965-01-01,,MNP,59.5,66,95,50,135,280,M,Masters 2,SBD,Raw
1,Manoj Bohti,1968-09-01,,MP,71.1,74,172.5,110,187.5,470,M,Masters 2,SBD,Raw
2,Rajendra Sawant,1966-11-22,,MAH,71.2,74,155,90,190,435,M,Masters 2,SBD,Raw
3,R. Krishnamoorthy,1963-02-26,,TN,73.9,74,182.5,87.5,160,430,M,Masters 2,SBD,Raw
4,M. Bhaskar Rao,1965-07-01,,AP,73.1,74,160,103,160,422.5,M,Masters 2,SBD,Raw
5,P. Raju,1962-08-01,,TEL,74,74,145,60,165,370,M,Masters 2,SBD,Raw
6,Ramesh Sonkar,1962-10-12,,UP,70.3,74,120,80,155,355,M,Masters 2,SBD,Raw
7,Ashok Kumar Tiwari,1959-07-01,,MP,72.1,74,115,75,132.5,322.5,M,Masters 2,SBD,Raw
8,Gulam Mohd. Shaikh,1961-11-05,,MAH,72.4,74,95,90,125,310,M,Masters 2,SBD,Raw
9,Vijay Kumar Janjua,1963-06-20,,PUN,73.1,74,80,75,95,250,M,Masters 2,SBD,Raw
10,Narendra Kumar Thakur,1965-10-31,,CHT,71.7,74,30,50,90,170,M,Masters 2,SBD,Raw
1,K.R.Takale,1959-05-01,,MAH,78.5,83,170,85,165,420,M,Masters 2,SBD,Raw
2,Ram Nagina,1963-04-11,,CHT,82.4,83,155,92.5,157.5,405,M,Masters 2,SBD,Raw
3,B. M. Thakur,1967-05-11,,CHT,80.9,83,127.5,108,140,375,M,Masters 2,SBD,Raw
4,Shreeram Tare,1961-03-24,,MP,80.9,83,120,92.5,140,352.5,M,Masters 2,SBD,Raw
DQ,Suraj Ram Pawar,1968-10-04,,JHAR,82.6,83,,,,,M,Masters 2,SBD,Raw
1,Nikhil Maheshwari,1967-08-03,,GUJ,93,93,155,130,175,460,M,Masters 2,SBD,Raw
2,Sanjiv Razdan,1960-11-13,,MP,90.2,93,150,118,175,442.5,M,Masters 2,SBD,Raw
3,Patanjali Jha,1964-09-15,,CHT,89.9,93,110,60,150,320,M,Masters 2,SBD,Raw
4,P. Vishwanath,1967-05-24,,KTK,83.1,93,97.5,40,130,267.5,M,Masters 2,SBD,Raw
1,Surinder Singh,1966-10-01,,MP,95.6,105,185,115,197.5,497.5,M,Masters 2,SBD,Raw
2,Rajendra Kumar Parida,1967-01-10,,ODI,97.2,105,180,118,190,487.5,M,Masters 2,SBD,Raw
3,E. Sanyasi Rao,1964-05-25,,AP,96.8,105,170,105,190,465,M,Masters 2,SBD,Raw
4,Satvir Singh,1962-02-24,,PUN,94.8,105,160,108,185,452.5,M,Masters 2,SBD,Raw
1,C. Siva Kumar,1964-06-15,,TN,109.4,120,170,150,190,510,M,Masters 2,SBD,Raw
2,Bhimsen Sharma,1967-11-07,,MP,105.4,120,160,135,160,455,M,Masters 2,SBD,Raw
3,Shareef Khan,1959-05-15,,MP,113.3,120,130,100,130,360,M,Masters 2,SBD,Raw
1,Baghwandas Kashyap,1956-09-14,,MP,58.2,59,115,57.5,150,322.5,M,Masters 3,SBD,Raw
2,G. Veerabhadrappa,1949-12-08,,KTK,56.2,59,125,45,135,305,M,Masters 3,SBD,Raw
3,Haradhan Bag,1955-07-01,,WB,58.1,59,110,67.5,122.5,300,M,Masters 3,SBD,Raw
4,Mohd. Riyaz,1956-08-02,,UP,52.7,59,75,47.5,110,232.5,M,Masters 3,SBD,Raw
1,C. Premachandran,1950-12-01,,KER,60,66,137.5,65,175,377.5,M,Masters 3,SBD,Raw
2,Basanthkumar Srivastava,1956-02-15,,CHT,65.9,66,87.5,57.5,140,285,M,Masters 3,SBD,Raw
3,Ramesh Chandra Namdev,1958-03-24,,MP,62.8,66,102.5,67.5,102.5,272.5,M,Masters 3,SBD,Raw
4,Madan Mohan Dawn,1958-08-19,,WB,65.2,66,82.5,70,100,252.5,M,Masters 3,SBD,Raw
1,Ravi Shankar,1957-01-16,,CHD,71.5,74,117.5,77.5,135,330,M,Masters 3,SBD,Raw
2,Satvir Singh,1956-07-01,,DEL,72.6,74,120,57.5,137.5,315,M,Masters 3,SBD,Raw
3,Gurdev Singh,1955-12-17,,PUN,72.1,74,85,52.5,100,237.5,M,Masters 3,SBD,Raw
4,Jayachandran.G,1950-05-24,,KER,69.3,74,65,57.5,100,222.5,M,Masters 3,SBD,Raw
5,K. Dharnasingh,1955-03-06,,MNP,66.2,74,40,30,70,140,M,Masters 3,SBD,Raw
1,Subhash.B.Shelwale,1958-06-01,,MAH,79.2,83,130,77.5,145,352.5,M,Masters 3,SBD,Raw
2,Harish Kumar #1,1952-11-15,,KTK,81.5,83,130,82.5,140,352.5,M,Masters 3,SBD,Raw
3,Louis Naronha,1957-12-30,,MP,81.6,83,132.5,77.5,140,350,M,Masters 3,SBD,Raw
4,Bhaskar Chandra Behera,1957-08-05,,ODI,81,83,125,80,140,345,M,Masters 3,SBD,Raw
5,R. Sadanand,1958-03-03,,TEL,82.4,83,100,60,140,300,M,Masters 3,SBD,Raw
6,Satish Chandra Dixit,1952-08-28,,UP,78.9,83,90,60,130,280,M,Masters 3,SBD,Raw
1,Jagdish Singh,1955-06-15,,CHD,88.5,93,160,103,200,462.5,M,Masters 3,SBD,Raw
2,Deepak Kumar Haldar,1958-07-20,,UP,87.6,93,100,90,140,330,M,Masters 3,SBD,Raw
3,Suresh Yosef Bansode,1952-04-01,,MAH,87.4,93,87.5,60,120,267.5,M,Masters 3,SBD,Raw
1,Jagannath Rajput,1952-11-19,,MP,98.2,105,65,60,70,195,M,Masters 3,SBD,Raw
1,Shashikant Dubey,1946-12-09,,MP,73.5,74,110,50,120,280,M,Masters 4,SBD,Raw
1,Krishan Gopal Thapar,1948-11-12,,CHD,83.7,93,125,72.5,140,337.5,M,Masters 4,SBD,Raw
