Division,WeightClassKg,Place,Name,Team,BodyweightKg,Best3SquatKg,Best3BenchKg,Best3DeadliftKg,TotalKg,Equipment,Event,Sex,BirthDate
Girls,44.23,1,Brianna Echevarria,Rice,42.91,104.33,52.16,86.18,242.67,Unlimited,SBD,F,
Girls,44.23,2,Becca Poston,Hubbard,44,58.97,43.09,86.18,188.24,Unlimited,SBD,F,
Girls,44.23,3,Claire Allen,Whitney,42.18,65.77,40.82,72.57,179.17,Unlimited,SBD,F,
Girls,44.23,4,Kaedynce Wooten,Whitney,43.18,63.5,34.02,45.36,142.88,Unlimited,SBD,F,
Girls,44.23,5,Vanessa Cruz,Whitney,43.64,72.57,29.48,,102.06,Unlimited,SB,F,
Girls,47.85,1,Allison Willis,Whitney,46.81,92.99,58.97,99.79,251.74,Unlimited,SBD,F,
Girls,47.85,2,Mabree Moore,Rice,47.17,83.91,45.36,113.4,242.67,Unlimited,SBD,F,
Girls,47.85,3,Madilyn Middleton,Itasca,46.72,61.23,34.02,81.65,176.9,Unlimited,SBD,F,
Girls,47.85,4,Yadira Cruz,Hillsboro,47.63,70.31,29.48,70.31,170.1,Unlimited,SBD,F,
Girls,47.85,5,DaJessi Gonzalez,Hillsboro,47.63,61.23,29.48,77.11,167.83,Unlimited,SBD,F,
Girls,51.94,1,Maria Reyes,Hillsboro,51.71,111.13,49.9,104.33,265.35,Unlimited,SBD,F,
Girls,51.94,2,Sheyla Flores,Corsicana,51.35,104.33,45.36,104.33,254.01,Unlimited,SBD,F,
Girls,51.94,3,Chloe Perry,Rice,49.17,95.25,43.09,104.33,242.67,Unlimited,SBD,F,
Girls,51.94,4,Fatima Luna,Frost,51.71,97.52,36.29,102.06,235.87,Unlimited,SBD,F,
Girls,51.94,5,Kyla Sneed,Whitney,51.07,83.91,54.43,92.99,231.33,Unlimited,SBD,F,
Girls,51.94,6,Aubrey Middleton,Itasca,51.21,65.77,34.02,74.84,174.63,Unlimited,SBD,F,
Girls,51.94,7,Sofia Gonzalez,Ennis,49.9,61.23,34.02,61.23,156.49,Unlimited,SBD,F,
Girls,56.02,1,Maddie Vento,Rice,54.07,108.86,58.97,111.13,278.96,Unlimited,SBD,F,
Girls,56.02,2,Trinity Mata,Whitney,55.25,117.93,45.36,92.99,256.28,Unlimited,SBD,F,
Girls,56.02,3,Jade Nelson,Hillsboro,55.79,92.99,52.16,90.72,235.87,Unlimited,SBD,F,
Girls,56.02,4,Melanie Garcia,Corsicana,54.61,92.99,47.63,92.99,233.6,Unlimited,SBD,F,
Girls,56.02,5,Daisy Trejo,Hillsboro,53.07,92.99,43.09,83.91,219.99,Unlimited,SBD,F,
Girls,56.02,6,Sara Cormier,Hubbard,55.79,79.38,43.09,90.72,213.19,Unlimited,SBD,F,
Girls,56.02,7,Rebeca Lopez,Frost,55.79,74.84,36.29,74.84,185.97,Unlimited,SBD,F,
Girls,56.02,8,Amariah Frank,Wortham,53.61,68.04,34.02,70.31,172.37,Unlimited,SBD,F,
Girls,56.02,DQ,Roxana Castro-Lopez,Corsicana,55.7,97.52,,,,Unlimited,SBD,F,
Girls,60.1,1,Julee Beltran,Hillsboro,59.87,145.15,70.31,113.4,328.85,Unlimited,SBD,F,
Girls,60.1,2,Marisa Garrett,Hillsboro,59.87,108.86,58.97,106.59,274.42,Unlimited,SBD,F,
Girls,60.1,3,Madeleine Brown,Blooming Grove,59.87,104.33,54.43,92.99,251.74,Unlimited,SBD,F,
Girls,60.1,4,Jada Major,Ennis,57.7,86.18,49.9,102.06,238.14,Unlimited,SBD,F,
Girls,60.1,5,Liz Collins,Ennis,58.51,86.18,47.63,95.25,229.06,Unlimited,SBD,F,
Girls,60.1,6,Serennity Suetos,Teague,58.97,88.45,36.29,97.52,222.26,Unlimited,SBD,F,
Girls,60.1,7,Olivia Delong,Whitney,59.24,81.65,52.16,88.45,222.26,Unlimited,SBD,F,
Girls,60.1,8,Kailey Elkins,Wortham,57.97,86.18,36.29,97.52,219.99,Unlimited,SBD,F,
Girls,60.1,9,Malajah Woodward,Hubbard,59.87,83.91,45.36,83.91,213.19,Unlimited,SBD,F,
Girls,60.1,10,Amy Villareal,Whitney,57.88,79.38,45.36,83.91,208.65,Unlimited,SBD,F,
Girls,60.1,11,Henlee Brooks,Dawson,56.7,70.31,45.36,83.91,199.58,Unlimited,SBD,F,
Girls,60.1,12,Kennedy Melgares,Hubbard,59.87,74.84,43.09,74.84,192.78,Unlimited,SBD,F,
Girls,60.1,13,Madison Houston,Dawson,58.97,63.5,36.29,86.18,185.97,Unlimited,SBD,F,
Girls,60.1,14,Yisel Barajas,Ennis,57.7,52.16,24.95,61.23,138.35,Unlimited,SBD,F,
Girls,60.1,DQ,Cambryn McCollum,Corsicana,59.87,70.31,,,,Unlimited,SBD,F,
Girls,60.1,DQ,Xochitl Contrereas,Whitney,57.97,102.06,52.16,,,Unlimited,SBD,F,
Girls,67.36,1,Alysia Hernandez,Hillsboro,66.22,136.08,74.84,111.13,322.05,Unlimited,SBD,F,
Girls,67.36,2,Heaven Gruzins,Corsicana,60.42,113.4,65.77,136.08,315.25,Unlimited,SBD,F,
Girls,67.36,3,Cj Marshall,Itasca,66.86,115.67,56.7,124.74,297.1,Unlimited,SBD,F,
Girls,67.36,4,Macy Howell,Hubbard,67.13,106.59,72.57,106.59,285.76,Unlimited,SBD,F,
Girls,67.36,5,Alexa Manuel,Hillsboro,67.13,113.4,65.77,95.25,274.42,Unlimited,SBD,F,
Girls,67.36,6,Jordan Smith,Corsicana Mildred,67.13,113.4,61.23,97.52,272.16,Unlimited,SBD,F,
Girls,67.36,7,Jadyn Gillen,Blooming Grove,67.13,108.86,47.63,106.59,263.08,Unlimited,SBD,F,
Girls,67.36,8,Shelby Beldin,Corsicana Mildred,67.13,102.06,43.09,111.13,256.28,Unlimited,SBD,F,
Girls,67.36,9,Madison Aldama,Ennis,66.77,83.91,61.23,108.86,254.01,Unlimited,SBD,F,
Girls,67.36,10,Haley Busch,Scurry-Rosser,67.36,92.99,52.16,99.79,244.94,Unlimited,SBD,F,
Girls,67.36,11,Sophia Lara,Corsicana,63.68,88.45,45.36,92.99,226.8,Unlimited,SBD,F,
Girls,67.36,12,Angelica Perez,Ennis,65.77,92.99,49.9,72.57,215.46,Unlimited,SBD,F,
Girls,67.36,13,Laura Sanchez,Rice,61.23,74.84,47.63,77.11,199.58,Unlimited,SBD,F,
Girls,67.36,DQ,Ember Preston,Wortham,60.96,63.5,,,,Unlimited,SBD,F,
Girls,67.36,DQ,Ava Oaks,Teague,62.14,90.72,,,,Unlimited,SBD,F,
Girls,67.36,DQ,Preslee Barkouskie,Teague,63.5,88.45,,,,Unlimited,SBD,F,
Girls,67.36,DQ,Ilexis Flores,Itasca,62.78,65.77,,,,Unlimited,SBD,F,
Girls,75.07,1,Sara Lopez,Corsicana,74.39,142.88,74.84,138.35,356.07,Unlimited,SBD,F,
Girls,75.07,2,Elle Gillham,Hubbard,74.84,99.79,52.16,113.4,265.35,Unlimited,SBD,F,
Girls,75.07,3,Carissa Bradfield,Scurry-Rosser,75.07,97.52,49.9,108.86,256.28,Unlimited,SBD,F,
Girls,75.07,4,Emma Vicente,Hillsboro,74.84,102.06,58.97,92.99,254.01,Unlimited,SBD,F,
Girls,75.07,5,Jaela Zuniga,Hillsboro,74.84,90.72,56.7,92.99,240.4,Unlimited,SBD,F,
Girls,75.07,6,Elisabet Santoyo,Rice,74.48,97.52,45.36,92.99,235.87,Unlimited,SBD,F,
Girls,75.07,7,Madelyn Mitchell,Dawson,74.66,63.5,38.56,68.04,170.1,Unlimited,SBD,F,
Girls,82.33,1,Sloan Cadena,Rice,81.65,102.06,58.97,136.08,297.1,Unlimited,SBD,F,
Girls,82.33,2,Daniela Cano,Corsicana,81.83,117.93,61.23,113.4,292.57,Unlimited,SBD,F,
Girls,82.33,3,Daisy Cardona,Ennis,77.38,127.01,49.9,113.4,290.3,Unlimited,SBD,F,
Girls,82.33,4,Madeline Shaw,Frost,82.1,102.06,52.16,106.59,260.82,Unlimited,SBD,F,
Girls,82.33,5,Korree Risken,Teague,80.74,102.06,47.63,104.33,254.01,Unlimited,SBD,F,
Girls,82.33,6,Michelle Chavez,Itasca,80.92,102.06,52.16,97.52,251.74,Unlimited,SBD,F,
Girls,82.33,7,Lyric Greer,Dawson,80.01,79.38,36.29,86.18,201.85,Unlimited,SBD,F,
Girls,82.33,8,Bree Brooks,Corsicana Mildred,82.1,68.04,40.82,92.99,201.85,Unlimited,SBD,F,
Girls,90.04,1,Lily Webb,Ennis,89.81,138.35,90.72,151.95,381.02,Unlimited,SBD,F,
Girls,90.04,2,Abby McGuire,Corsicana Mildred,89.81,145.15,79.38,133.81,358.34,Unlimited,SBD,F,
Girls,90.04,3,Maggie Howell,Hubbard,89.81,129.27,79.38,136.08,344.73,Unlimited,SBD,F,
Girls,90.04,4,Kk Cuevas,Teague,87.09,117.93,70.31,136.08,324.32,Unlimited,SBD,F,
Girls,90.04,5,Abigail Mendieta,Hillsboro,89.81,111.13,61.23,111.13,283.5,Unlimited,SBD,F,
Girls,90.04,6,Abigail Zuniga,Corsicana,88.63,104.33,56.7,113.4,274.42,Unlimited,SBD,F,
Girls,90.04,7,Sarah Lacy,Itasca,85.96,65.77,36.29,88.45,190.51,Unlimited,SBD,F,
Girls,90.04,DQ,Roselyn Cano,Blooming Grove,88.45,,,,,Unlimited,SBD,F,
Girls,90.04,DQ,Niccole Greer,Corsicana Mildred,89.81,,,,,Unlimited,SBD,F,
Girls,100.02,1,Roxy Bustillo,Dawson,91.08,131.54,68.04,142.88,342.46,Unlimited,SBD,F,
Girls,100.02,2,Jaycee Rhoades,Scurry-Rosser,97.25,104.33,49.9,108.86,263.08,Unlimited,SBD,F,
Girls,100.02,3,Graysea Butler,Rice,91.08,108.86,61.23,90.72,260.82,Unlimited,SBD,F,
Girls,100.02,4,Grace Isom,Rice,91.08,65.77,56.7,81.65,204.12,Unlimited,SBD,F,
Girls,110,1,Kinley Wragge,Hubbard,109.77,156.49,79.38,140.61,376.48,Unlimited,SBD,F,
Girls,110+,1,Laikahs Kelly,Corsicana,122.02,195.04,113.4,190.51,498.95,Unlimited,SBD,F,
Girls,110+,2,Leslee Jones,Corsicana,114.94,167.83,106.59,163.29,437.72,Unlimited,SBD,F,
Girls,110+,3,Alyssa Kraayvanger,Hubbard,110.68,142.88,102.06,163.29,408.23,Unlimited,SBD,F,
Girls,110+,4,Angelica Becerril,Corsicana,122.47,142.88,70.31,145.15,358.34,Unlimited,SBD,F,
Girls,110+,5,Emma Couch,Whitney,118.98,142.88,83.91,115.67,342.46,Unlimited,SBD,F,
Girls,110+,6,Genesis Zuniga,Hillsboro,111.13,117.93,70.31,124.74,312.98,Unlimited,SBD,F,
Girls,110+,7,Scotlynn Hill,Blooming Grove,117.03,106.59,43.09,104.33,254.01,Unlimited,SBD,F,
Girls,110+,8,Jeymi Velasquez,Rice,117.21,92.99,52.16,104.33,249.48,Unlimited,SBD,F,
Girls,110+,9,Angela Flores,Rice,110.04,72.57,47.63,81.65,201.85,Unlimited,SBD,F,
Girls,,NS,Madeline Garcia,Ennis,,,,,,Unlimited,SBD,F,
Girls,,NS,May Morales,Ennis,,,,,,Unlimited,SBD,F,
